Time,Extension,Load
(sec),(mm),(N)
0.00000,-1.18670,-1.26175
0.10000,-1.19500,-1.35571
0.20000,-1.20340,-1.43624
0.30000,-1.21170,-1.50336
0.40000,-1.22000,-1.57047
0.50000,-1.22840,-1.63758
0.60000,-1.23670,-1.71812
0.70000,-1.24500,-1.77181
0.80000,-1.25340,-1.85235
0.90000,-1.26170,-1.91946
1.00000,-1.27000,-1.98658
1.10000,-1.27840,-2.06711
1.20000,-1.28670,-2.13423
1.30000,-1.29500,-2.20134
1.40000,-1.30340,-2.28188
1.50000,-1.31170,-2.34899
1.60000,-1.32000,-2.41611
1.70000,-1.32840,-2.49664
1.80000,-1.33670,-2.55033
1.90000,-1.34500,-2.63087
2.00000,-1.35340,-2.69798
2.10000,-1.36170,-2.77852
2.20000,-1.37000,-2.84564
2.30000,-1.37840,-2.91275
2.40000,-1.38670,-2.97986
2.50000,-1.39500,-3.04698
2.60000,-1.40340,-3.11409
2.70000,-1.41170,-3.19463
2.80000,-1.42000,-3.27516
2.90000,-1.42840,-3.34228
3.00000,-1.43670,-3.42282
3.10000,-1.44500,-3.47651
3.20000,-1.45340,-3.54362
3.30000,-1.46170,-3.61073
3.40000,-1.47000,-3.69127
3.50000,-1.47840,-3.77181
3.60000,-1.48670,-3.83892
3.70000,-1.49500,-3.91946
3.80000,-1.50340,-3.98657
3.90000,-1.51170,-4.04026
4.00000,-1.52000,-4.10738
4.10000,-1.52840,-4.18791
4.20000,-1.53670,-4.25503
4.30000,-1.54500,-4.33556
4.40000,-1.55340,-4.40268
4.50000,-1.56170,-4.45637
4.60000,-1.57000,-4.53691
4.70000,-1.57840,-4.61744
4.80000,-1.58670,-4.68456
4.90000,-1.59500,-4.76509
5.00000,-1.60340,-4.81878
5.10000,-1.61170,-4.88590
5.20000,-1.62000,-4.95301
5.30000,-1.62830,-5.03355
5.40000,-1.63670,-5.10066
5.50000,-1.64500,-5.18120
5.60000,-1.65330,-5.24831
5.70000,-1.66170,-5.31543
5.80000,-1.67000,-5.38254
5.90000,-1.67830,-5.46308
6.00000,-1.68670,-5.51677
6.10000,-1.69500,-5.58388
6.20000,-1.70330,-5.66442
6.30000,-1.71170,-5.73153
6.40000,-1.72000,-5.79865
6.50000,-1.72830,-5.87918
6.60000,-1.73670,-5.94630
6.70000,-1.74500,-6.01341
6.80000,-1.75330,-6.08053
6.90000,-1.76170,-6.14764
7.00000,-1.77000,-6.21475
7.10000,-1.77830,-6.29529
7.20000,-1.78670,-6.34898
7.30000,-1.79500,-6.42952
7.40000,-1.80330,-6.49663
7.50000,-1.81170,-6.56375
7.60000,-1.82000,-6.63086
7.70000,-1.82830,-6.71140
7.80000,-1.83670,-6.77851
7.90000,-1.84500,-6.84563
8.00000,-1.85330,-6.91274
8.10000,-1.86170,-6.97985
8.20000,-1.87000,-7.04697
8.30000,-1.87830,-7.12750
8.40000,-1.88670,-7.19462
8.50000,-1.89500,-7.26173
8.60000,-1.90330,-7.32885
8.70000,-1.91170,-7.39596
8.80000,-1.92000,-7.47650
8.90000,-1.92830,-7.54361
9.00000,-1.93670,-7.61072
9.10000,-1.94500,-7.67784
9.20000,-1.95330,-7.74495
9.30000,-1.96170,-7.81207
9.40000,-1.97000,-7.87918
9.50000,-1.97830,-7.95972
9.60000,-1.98670,-8.02683
9.70000,-1.99500,-8.09394
9.80000,-2.00330,-8.16106
9.90000,-2.01170,-8.22817
10.00000,-2.02000,-8.30871
10.10000,-2.02830,-8.37582
10.20000,-2.03670,-8.44294
10.30000,-2.04500,-8.51005
10.40000,-2.05330,-8.57716
10.50000,-2.06170,-8.64428
10.60000,-2.07000,-8.71139
10.70000,-2.07830,-8.77851
10.80000,-2.08670,-8.85904
10.90000,-2.09500,-8.92616
11.00000,-2.10330,-8.99327
11.10000,-2.11170,-9.06038
11.20000,-2.12000,-9.12750
11.30000,-2.12830,-9.20804
11.40000,-2.13660,-9.26173
11.50000,-2.14500,-9.34226
11.60000,-2.15330,-9.42280
11.70000,-2.16160,-9.47649
11.80000,-2.17000,-9.53018
11.90000,-2.17830,-9.59730
12.00000,-2.18660,-9.67783
12.10000,-2.19500,-9.74495
12.20000,-2.20330,-9.81206
12.30000,-2.21160,-9.87917
12.40000,-2.22000,-9.94629
12.50000,-2.22830,-9.99998
12.60000,-2.23660,-10.08052
12.70000,-2.24500,-10.16105
12.80000,-2.25330,-10.22817
12.90000,-2.26160,-10.29528
13.00000,-2.27000,-10.36239
13.10000,-2.27830,-10.42951
13.20000,-2.28660,-10.49662
13.30000,-2.29500,-10.56374
13.40000,-2.30330,-10.64427
13.50000,-2.31160,-10.71139
13.60000,-2.32000,-10.76508
13.70000,-2.32830,-10.84561
13.80000,-2.33660,-10.91273
13.90000,-2.34500,-10.97984
14.00000,-2.35330,-11.04696
14.10000,-2.36160,-11.11407
14.20000,-2.37000,-11.18118
14.30000,-2.37830,-11.24830
14.40000,-2.38660,-11.31541
14.50000,-2.39500,-11.38253
14.60000,-2.40330,-11.46306
14.70000,-2.41160,-11.53018
14.80000,-2.42000,-11.59729
14.90000,-2.42830,-11.66440
15.00000,-2.43660,-11.73152
15.10000,-2.44500,-11.79863
15.20000,-2.45330,-11.86575
15.30000,-2.46160,-11.93286
15.40000,-2.47000,-11.99997
15.50000,-2.47830,-12.08051
15.60000,-2.48660,-12.14762
15.70000,-2.49500,-12.21474
15.80000,-2.50330,-12.28185
15.90000,-2.51160,-12.34897
16.00000,-2.52000,-12.41608
16.10000,-2.52830,-12.48319
16.20000,-2.53660,-12.55031
16.30000,-2.54500,-12.63085
16.40000,-2.55330,-12.69796
16.50000,-2.56160,-12.76507
16.60000,-2.57000,-12.83219
16.70000,-2.57830,-12.88588
16.80000,-2.58660,-12.96641
16.90000,-2.59500,-13.03353
17.00000,-2.60330,-13.10064
17.10000,-2.61160,-13.16776
17.20000,-2.62000,-13.23487
17.30000,-2.62830,-13.30198
17.40000,-2.63660,-13.36910
17.50000,-2.64500,-13.43621
17.60000,-2.65330,-13.50333
17.70000,-2.66160,-13.57044
17.80000,-2.66990,-13.63755
17.90000,-2.67830,-13.71809
18.00000,-2.68660,-13.77178
18.10000,-2.69490,-13.85232
18.20000,-2.70330,-13.91943
18.30000,-2.71160,-13.98655
18.40000,-2.71990,-14.06708
18.50000,-2.72830,-14.12077
18.60000,-2.73660,-14.18789
18.70000,-2.74490,-14.25500
18.80000,-2.75330,-14.32212
18.90000,-2.76160,-14.40265
19.00000,-2.76990,-14.46977
19.10000,-2.77830,-14.53688
19.20000,-2.78660,-14.60399
19.30000,-2.79490,-14.67111
19.40000,-2.80330,-14.73822
19.50000,-2.81160,-14.80534
19.60000,-2.81990,-14.88587
19.70000,-2.82830,-14.95299
19.80000,-2.83660,-15.03352
19.90000,-2.84490,-15.08721
20.00000,-2.85330,-15.15433
20.10000,-2.86160,-15.23487
20.20000,-2.86990,-15.30198
20.30000,-2.87830,-15.36909
20.40000,-2.88660,-15.43621
20.50000,-2.89490,-15.50332
20.60000,-2.90330,-15.57043
20.70000,-2.91160,-15.63755
20.80000,-2.91990,-15.71809
20.90000,-2.92830,-15.78520
21.00000,-2.93660,-15.85231
21.10000,-2.94490,-15.93285
21.20000,-2.95330,-15.98654
21.30000,-2.96160,-16.05366
21.40000,-2.96990,-16.13419
21.50000,-2.97830,-16.20131
21.60000,-2.98660,-16.26842
21.70000,-2.99490,-16.34896
21.80000,-3.00330,-16.41607
21.90000,-3.01160,-16.48318
22.00000,-3.01990,-16.55030
22.10000,-3.02830,-16.61741
22.20000,-3.03660,-16.68453
22.30000,-3.04490,-16.75164
22.40000,-3.05330,-16.81875
22.50000,-3.06160,-16.89929
22.60000,-3.06990,-16.95298
22.70000,-3.07830,-17.04694
22.80000,-3.08660,-17.11406
22.90000,-3.09490,-17.18117
23.00000,-3.10330,-17.26171
23.10000,-3.11160,-17.30197
23.20000,-3.11990,-17.38251
23.30000,-3.12830,-17.44962
23.40000,-3.13660,-17.50332
23.50000,-3.14490,-17.57043
23.60000,-3.15330,-17.66439
23.70000,-3.16160,-17.71808
23.80000,-3.16990,-17.79862
23.90000,-3.17820,-17.86573
24.00000,-3.18660,-17.91942
24.10000,-3.19490,-17.98654
24.20000,-3.20320,-18.05365
24.30000,-3.21160,-18.12076
24.40000,-3.21990,-18.18788
24.50000,-3.22820,-18.25499
24.60000,-3.23660,-18.33553
24.70000,-3.24490,-18.40264
24.80000,-3.25320,-18.46976
24.90000,-3.26160,-18.53687
25.00000,-3.26990,-18.60398
25.10000,-3.27820,-18.67110
25.20000,-3.28660,-18.73821
25.30000,-3.29490,-18.80533
25.40000,-3.30320,-18.88586
25.50000,-3.31160,-18.95298
25.60000,-3.31990,-19.00667
25.70000,-3.32820,-19.08720
25.80000,-3.33660,-19.15432
25.90000,-3.34490,-19.22143
26.00000,-3.35320,-19.28855
26.10000,-3.36160,-19.36908
26.20000,-3.36990,-19.42277
26.30000,-3.37820,-19.50331
26.40000,-3.38660,-19.57042
26.50000,-3.39490,-19.63754
26.60000,-3.40320,-19.70465
26.70000,-3.41160,-19.77177
26.80000,-3.41990,-19.83888
26.90000,-3.42820,-19.90599
27.00000,-3.43660,-19.97311
27.10000,-3.44490,-20.05364
27.20000,-3.45320,-20.10734
27.30000,-3.46160,-20.18787
27.40000,-3.46990,-20.24156
27.50000,-3.47820,-20.30868
27.60000,-3.48660,-20.37579
27.70000,-3.49490,-20.45633
27.80000,-3.50320,-20.52344
27.90000,-3.51160,-20.59056
28.00000,-3.51990,-20.65767
28.10000,-3.52820,-20.72478
28.20000,-3.53660,-20.79190
28.30000,-3.54490,-20.85901
28.40000,-3.55320,-20.93955
28.50000,-3.56160,-20.99324
28.60000,-3.56990,-21.07378
28.70000,-3.57820,-21.14089
28.80000,-3.58660,-21.20800
28.90000,-3.59490,-21.27512
29.00000,-3.60320,-21.34223
29.10000,-3.61160,-21.40935
29.20000,-3.61990,-21.47646
29.30000,-3.62820,-21.54357
29.40000,-3.63660,-21.59727
29.50000,-3.64490,-21.69122
29.60000,-3.65320,-21.74492
29.70000,-3.66160,-21.82545
29.80000,-3.66990,-21.89257
29.90000,-3.67820,-21.95968
30.00000,-3.68660,-22.02679
30.10000,-3.69490,-22.08049
30.20000,-3.70320,-22.14760
30.30000,-3.71150,-22.21471
30.40000,-3.71990,-22.29525
30.50000,-3.72820,-22.34894
30.60000,-3.73650,-22.40263
30.70000,-3.74490,-22.45632
30.80000,-3.75320,-22.52344
30.90000,-3.76150,-22.59055
31.00000,-3.76990,-22.65767
31.10000,-3.77820,-22.73820
31.20000,-3.78650,-22.79189
31.30000,-3.79490,-22.85901
31.40000,-3.80320,-22.92612
31.50000,-3.81150,-22.99323
31.60000,-3.81990,-23.06035
31.70000,-3.82820,-23.14089
31.80000,-3.83650,-23.19458
31.90000,-3.84490,-23.27511
32.00000,-3.85320,-23.32880
32.10000,-3.86150,-23.39592
32.20000,-3.86990,-23.46303
32.30000,-3.87820,-23.53015
32.40000,-3.88650,-23.59726
32.50000,-3.89490,-23.66437
32.60000,-3.90320,-23.73149
32.70000,-3.91150,-23.79860
32.80000,-3.91990,-23.86572
32.90000,-3.92820,-23.93283
33.00000,-3.93650,-23.99994
33.10000,-3.94490,-24.06706
33.20000,-3.95320,-24.13417
33.30000,-3.96150,-24.20129
33.40000,-3.96990,-24.25498
33.50000,-3.97820,-24.32209
33.60000,-3.98650,-24.38920
33.70000,-3.99490,-24.46974
33.80000,-4.00320,-24.53685
33.90000,-4.01150,-24.59055
34.00000,-4.01990,-24.65766
34.10000,-4.02820,-24.72477
34.20000,-4.03650,-24.79189
34.30000,-4.04490,-24.85900
34.40000,-4.05320,-24.93954
34.50000,-4.06150,-24.99323
34.60000,-4.06990,-25.06034
34.70000,-4.07820,-25.12746
34.80000,-4.08650,-25.18115
34.90000,-4.09490,-25.26169
35.00000,-4.10320,-25.32880
35.10000,-4.11150,-25.39591
35.20000,-4.11990,-25.46303
35.30000,-4.12820,-25.51672
35.40000,-4.13650,-25.58383
35.50000,-4.14490,-25.65095
35.60000,-4.15320,-25.71806
35.70000,-4.16150,-25.78517
35.80000,-4.16990,-25.85229
35.90000,-4.17820,-25.91940
36.00000,-4.18650,-25.98652
36.10000,-4.19490,-26.05363
36.20000,-4.20320,-26.10732
36.30000,-4.21150,-26.18786
36.40000,-4.21980,-26.24155
36.50000,-4.22820,-26.32209
36.60000,-4.23650,-26.37578
36.70000,-4.24480,-26.44289
36.80000,-4.25320,-26.49658
36.90000,-4.26150,-26.56370
37.00000,-4.26980,-26.64423
37.10000,-4.27820,-26.71135
37.20000,-4.28650,-26.76504
37.30000,-4.29480,-26.81873
37.40000,-4.30320,-26.88584
37.50000,-4.31150,-26.93953
37.60000,-4.31980,-27.02007
37.70000,-4.32820,-27.08718
37.80000,-4.33650,-27.15430
37.90000,-4.34480,-27.22141
38.00000,-4.35320,-27.28853
38.10000,-4.36150,-27.35564
38.20000,-4.36980,-27.42275
38.30000,-4.37820,-27.48987
38.40000,-4.38650,-27.54356
38.50000,-4.39480,-27.61067
38.60000,-4.40320,-27.66436
38.70000,-4.41150,-27.73148
38.80000,-4.41980,-27.81201
38.90000,-4.42820,-27.87913
39.00000,-4.43650,-27.94624
39.10000,-4.44480,-27.99993
39.20000,-4.45320,-28.06705
39.30000,-4.46150,-28.12074
39.40000,-4.46980,-28.18785
39.50000,-4.47820,-28.25497
39.60000,-4.48650,-28.32208
39.70000,-4.49480,-28.38919
39.80000,-4.50320,-28.45631
39.90000,-4.51150,-28.52342
40.00000,-4.51980,-28.59054
40.10000,-4.52820,-28.64423
40.20000,-4.53650,-28.69792
40.30000,-4.54480,-28.77845
40.40000,-4.55310,-28.83215
40.50000,-4.56140,-28.88584
40.60000,-4.56980,-28.96637
40.70000,-4.57810,-29.02006
40.80000,-4.58640,-29.08718
40.90000,-4.59480,-29.15429
41.00000,-4.60310,-29.22141
41.10000,-4.61140,-29.28852
41.20000,-4.61980,-29.35563
41.30000,-4.62810,-29.39590
41.40000,-4.63640,-29.47644
41.50000,-4.64480,-29.53013
41.60000,-4.65310,-29.59724
41.70000,-4.66140,-29.66436
41.80000,-4.66980,-29.73147
41.90000,-4.67810,-29.78516
42.00000,-4.68640,-29.85228
42.10000,-4.69470,-29.91939
42.20000,-4.70310,-29.98651
42.30000,-4.71140,-30.04020
42.40000,-4.71970,-30.10731
42.50000,-4.72810,-30.17442
42.60000,-4.73640,-30.22812
42.70000,-4.74470,-30.29523
42.80000,-4.75310,-30.36234
42.90000,-4.76140,-30.42946
43.00000,-4.76970,-30.48315
43.10000,-4.77810,-30.53684
43.20000,-4.78640,-30.60395
43.30000,-4.79470,-30.67107
43.40000,-4.80310,-30.73818
43.50000,-4.81140,-30.79187
43.60000,-4.81970,-30.85899
43.70000,-4.82810,-30.91268
43.80000,-4.83640,-30.97979
43.90000,-4.84470,-31.04691
44.00000,-4.85310,-31.11402
44.10000,-4.86140,-31.18113
44.20000,-4.86970,-31.23482
44.30000,-4.87810,-31.30194
44.40000,-4.88640,-31.35563
44.50000,-4.89470,-31.42274
44.60000,-4.90310,-31.48986
44.70000,-4.91140,-31.54355
44.80000,-4.91970,-31.61066
44.90000,-4.92810,-31.67778
45.00000,-4.93640,-31.73147
45.10000,-4.94470,-31.78516
45.20000,-4.95310,-31.85227
45.30000,-4.96140,-31.91939
45.40000,-4.96970,-31.98650
45.50000,-4.97810,-32.04019
45.60000,-4.98640,-32.10731
45.70000,-4.99470,-32.16100
45.80000,-5.00310,-32.22811
45.90000,-5.01140,-32.29522
46.00000,-5.01970,-32.34892
46.10000,-5.02810,-32.42945
46.20000,-5.03640,-32.48314
46.30000,-5.04470,-32.55026
46.40000,-5.05310,-32.60395
46.50000,-5.06140,-32.67106
46.60000,-5.06970,-32.73818
46.70000,-5.07810,-32.79187
46.80000,-5.08640,-32.84556
46.90000,-5.09470,-32.92610
47.00000,-5.10310,-32.97979
47.10000,-5.11140,-33.04690
47.20000,-5.11970,-33.10059
47.30000,-5.12810,-33.16771
47.40000,-5.13640,-33.22140
47.50000,-5.14470,-33.27509
47.60000,-5.15310,-33.34220
47.70000,-5.16140,-33.38247
47.80000,-5.16970,-33.46301
47.90000,-5.17810,-33.53012
48.00000,-5.18640,-33.59723
48.10000,-5.19470,-33.65093
48.20000,-5.20310,-33.71804
48.30000,-5.21140,-33.75831
48.40000,-5.21970,-33.82542
48.50000,-5.22800,-33.87911
48.60000,-5.23640,-33.95965
48.70000,-5.24470,-34.02676
48.80000,-5.25300,-34.08045
48.90000,-5.26140,-34.14757
49.00000,-5.26970,-34.20126
49.10000,-5.27800,-34.25495
49.20000,-5.28640,-34.32206
49.30000,-5.29470,-34.37576
49.40000,-5.30300,-34.44287
49.50000,-5.31140,-34.50998
49.60000,-5.31970,-34.55025
49.70000,-5.32800,-34.61737
49.80000,-5.33640,-34.68448
49.90000,-5.34470,-34.75159
50.00000,-5.35300,-34.80529
50.10000,-5.36140,-34.85898
50.20000,-5.36970,-34.91267
50.30000,-5.37800,-34.97978
50.40000,-5.38640,-35.03347
50.50000,-5.39470,-35.08716
50.60000,-5.40300,-35.15428
50.70000,-5.41140,-35.22139
50.80000,-5.41970,-35.28851
50.90000,-5.42800,-35.34220
51.00000,-5.43640,-35.38246
51.10000,-5.44470,-35.44958
51.20000,-5.45300,-35.51669
51.30000,-5.46140,-35.58381
51.40000,-5.46970,-35.63750
51.50000,-5.47800,-35.70461
51.60000,-5.48640,-35.75830
51.70000,-5.49470,-35.82542
51.80000,-5.50300,-35.86568
51.90000,-5.51140,-35.93280
52.00000,-5.51970,-35.99991
52.10000,-5.52800,-36.06703
52.20000,-5.53640,-36.12072
52.30000,-5.54470,-36.17441
52.40000,-5.55300,-36.22810
52.50000,-5.56140,-36.29521
52.60000,-5.56970,-36.34891
52.70000,-5.57800,-36.41602
52.80000,-5.58640,-36.48313
52.90000,-5.59470,-36.53682
53.00000,-5.60300,-36.59052
53.10000,-5.61140,-36.64421
53.20000,-5.61970,-36.69790
53.30000,-5.62800,-36.77843
53.40000,-5.63640,-36.83213
53.50000,-5.64470,-36.88582
53.60000,-5.65300,-36.93951
53.70000,-5.66140,-36.99320
53.80000,-5.66970,-37.04689
53.90000,-5.67800,-37.11400
54.00000,-5.68640,-37.18112
54.10000,-5.69470,-37.23481
54.20000,-5.70300,-37.28850
54.30000,-5.71140,-37.34219
54.40000,-5.71970,-37.40931
54.50000,-5.72800,-37.46300
54.60000,-5.73630,-37.53011
54.70000,-5.74470,-37.58380
54.80000,-5.75300,-37.63749
54.90000,-5.76130,-37.70461
55.00000,-5.76970,-37.75830
55.10000,-5.77800,-37.81199
55.20000,-5.78630,-37.87910
55.30000,-5.79470,-37.93279
55.40000,-5.80300,-37.98648
55.50000,-5.81130,-38.04018
55.60000,-5.81970,-38.10729
55.70000,-5.82800,-38.14756
55.80000,-5.83630,-38.21467
55.90000,-5.84470,-38.28179
56.00000,-5.85300,-38.33548
56.10000,-5.86130,-38.38917
56.20000,-5.86970,-38.45628
56.30000,-5.87800,-38.50997
56.40000,-5.88630,-38.55024
56.50000,-5.89470,-38.60393
56.60000,-5.90300,-38.65762
56.70000,-5.91130,-38.72474
56.80000,-5.91970,-38.77843
56.90000,-5.92800,-38.83212
57.00000,-5.93630,-38.89923
57.10000,-5.94470,-38.95293
57.20000,-5.95300,-39.00662
57.30000,-5.96130,-39.06031
57.40000,-5.96970,-39.11400
57.50000,-5.97800,-39.16769
57.60000,-5.98630,-39.22138
57.70000,-5.99470,-39.27507
57.80000,-6.00300,-39.35561
57.90000,-6.01130,-39.39588
58.00000,-6.01970,-39.46299
58.10000,-6.02800,-39.51668
58.20000,-6.03630,-39.57037
58.30000,-6.04470,-39.62406
58.40000,-6.05300,-39.67776
58.50000,-6.06130,-39.73145
58.60000,-6.06970,-39.79856
58.70000,-6.07800,-39.87910
58.80000,-6.08630,-39.93279
58.90000,-6.09470,-39.97306
59.00000,-6.10300,-40.02675
59.10000,-6.11130,-40.08044
59.20000,-6.11970,-40.14755
59.30000,-6.12800,-40.20124
59.40000,-6.13630,-40.25494
59.50000,-6.14470,-40.33547
59.60000,-6.15300,-40.38916
59.70000,-6.16130,-40.44285
59.80000,-6.16970,-40.49655
59.90000,-6.17800,-40.56366
60.00000,-6.18630,-40.61735
60.10000,-6.19470,-40.67104
60.20000,-6.20300,-40.72473
60.30000,-6.21130,-40.77842
60.40000,-6.21970,-40.84554
60.50000,-6.22800,-40.89923
60.60000,-6.23630,-40.96634
60.70000,-6.24470,-41.02003
60.80000,-6.25300,-41.07373
60.90000,-6.26130,-41.14084
61.00000,-6.26960,-41.18111
61.10000,-6.27800,-41.23480
61.20000,-6.28630,-41.30191
61.30000,-6.29460,-41.36903
61.40000,-6.30300,-41.42272
61.50000,-6.31130,-41.47641
61.60000,-6.31960,-41.53010
61.70000,-6.32800,-41.58379
61.80000,-6.33630,-41.63748
61.90000,-6.34460,-41.70460
62.00000,-6.35300,-41.77171
62.10000,-6.36130,-41.83882
62.20000,-6.36960,-41.89252
62.30000,-6.37800,-41.94621
62.40000,-6.38630,-41.99990
62.50000,-6.39460,-42.04017
62.60000,-6.40300,-42.10728
62.70000,-6.41130,-42.17439
62.80000,-6.41960,-42.22808
62.90000,-6.42800,-42.28178
63.00000,-6.43630,-42.33547
63.10000,-6.44460,-42.38916
63.20000,-6.45300,-42.45627
63.30000,-6.46130,-42.49654
63.40000,-6.46960,-42.55023
63.50000,-6.47800,-42.61735
63.60000,-6.48630,-42.67104
63.70000,-6.49460,-42.72473
63.80000,-6.50300,-42.76500
63.90000,-6.51130,-42.84553
64.00000,-6.51960,-42.89922
64.10001,-6.52800,-42.95292
64.20000,-6.53630,-43.00661
64.30000,-6.54460,-43.06030
64.40000,-6.55300,-43.11399
64.50000,-6.56130,-43.18110
64.60001,-6.56960,-43.23479
64.70000,-6.57800,-43.28848
64.80000,-6.58630,-43.34218
64.90000,-6.59460,-43.40929
65.00000,-6.60300,-43.46298
65.10001,-6.61130,-43.51667
65.20000,-6.61960,-43.57036
65.30000,-6.62800,-43.62405
65.40000,-6.63630,-43.67775
65.50000,-6.64460,-43.74486
65.60001,-6.65300,-43.79855
65.70001,-6.66130,-43.85224
65.80000,-6.66960,-43.90593
65.90000,-6.67800,-43.95962
66.00000,-6.68630,-44.01332
66.10001,-6.69460,-44.06701
66.20001,-6.70300,-44.13412
66.30000,-6.71130,-44.18781
66.40000,-6.71960,-44.22808
66.50000,-6.72800,-44.29519
66.60001,-6.73630,-44.33546
66.70001,-6.74460,-44.40258
66.80000,-6.75300,-44.45627
66.90000,-6.76130,-44.49654
67.00000,-6.76960,-44.56365
67.10001,-6.77790,-44.60392
67.20001,-6.78630,-44.63076
67.30000,-6.79460,-44.68445
67.40000,-6.80290,-44.73815
67.50000,-6.81130,-44.76499
67.60001,-6.81960,-44.83210
67.70001,-6.82790,-44.87237
67.80000,-6.83630,-44.93949
67.90000,-6.84460,-44.99318
68.00000,-6.85290,-45.03345
68.10001,-6.86130,-45.08714
68.20001,-6.86960,-45.14083
68.30000,-6.87790,-45.18110
68.40000,-6.88630,-45.24821
68.50000,-6.89460,-45.28848
68.60001,-6.90290,-45.34217
68.70001,-6.91130,-45.40928
68.80000,-6.91960,-45.44955
68.90000,-6.92790,-45.48982
69.00000,-6.93630,-45.55694
69.10001,-6.94460,-45.61063
69.20001,-6.95290,-45.66432
69.30000,-6.96130,-45.71801
69.40000,-6.96960,-45.75828
69.50000,-6.97790,-45.81197
69.60001,-6.98630,-45.85224
69.70001,-6.99460,-45.90593
69.80000,-7.00290,-45.95962
69.90000,-7.01130,-45.99989
70.00000,-7.01960,-46.05358
70.10001,-7.02790,-46.10727
70.20001,-7.03630,-46.16096
70.30000,-7.04460,-46.21465
70.40000,-7.05290,-46.26834
70.50000,-7.06130,-46.30861
70.60001,-7.06960,-46.36230
70.70001,-7.07790,-46.41599
70.80000,-7.08630,-46.45626
70.90000,-7.09460,-46.50995
71.00000,-7.10290,-46.56364
71.10001,-7.11130,-46.63076
71.20001,-7.11960,-46.68445
71.30000,-7.12790,-46.72472
71.40000,-7.13630,-46.77841
71.50000,-7.14460,-46.81868
71.60001,-7.15290,-46.87237
71.70001,-7.16130,-46.93948
71.80000,-7.16960,-46.97975
71.90000,-7.17790,-47.03344
72.00000,-7.18630,-47.08713
72.10001,-7.19460,-47.12740
72.20001,-7.20290,-47.18109
72.30000,-7.21130,-47.22136
72.40000,-7.21960,-47.27505
72.50000,-7.22790,-47.32874
72.60001,-7.23630,-47.36901
72.70001,-7.24460,-47.40928
72.80000,-7.25290,-47.46297
72.90000,-7.26130,-47.54351
73.00000,-7.26960,-47.59720
73.10001,-7.27790,-47.65089
73.20001,-7.28630,-47.67774
73.30000,-7.29460,-47.73143
73.40000,-7.30290,-47.78512
73.50000,-7.31120,-47.81196
73.60001,-7.31960,-47.86565
73.70001,-7.32790,-47.91935
73.80000,-7.33620,-47.97304
73.90000,-7.34460,-48.02673
74.00000,-7.35290,-48.05357
74.10001,-7.36120,-48.10726
74.20001,-7.36960,-48.16096
74.30000,-7.37790,-48.18780
74.40000,-7.38620,-48.26834
74.50000,-7.39460,-48.29518
74.60001,-7.40290,-48.34887
74.70001,-7.41120,-48.40257
74.80000,-7.41960,-48.42941
74.90000,-7.42790,-48.48310
75.00000,-7.43620,-48.53679
75.10001,-7.44460,-48.56364
75.20001,-7.45290,-48.61733
75.30000,-7.46120,-48.67102
75.40000,-7.46960,-48.72471
75.50000,-7.47790,-48.75156
75.60001,-7.48620,-48.80525
75.70001,-7.49460,-48.85894
75.80000,-7.50290,-48.91263
75.90000,-7.51120,-48.93948
76.00000,-7.51960,-49.02001
76.10001,-7.52790,-49.04686
76.20001,-7.53620,-49.10055
76.30000,-7.54460,-49.12740
76.40000,-7.55290,-49.18109
76.50000,-7.56120,-49.23478
76.60001,-7.56960,-49.26162
76.70001,-7.57790,-49.31531
76.80000,-7.58620,-49.36901
76.90000,-7.59460,-49.39585
77.00000,-7.60290,-49.44954
77.10001,-7.61120,-49.50323
77.20001,-7.61960,-49.55693
77.30000,-7.62790,-49.61062
77.40000,-7.63620,-49.63746
77.50000,-7.64460,-49.66431
77.60001,-7.65290,-49.74484
77.70001,-7.66120,-49.77169
77.80000,-7.66960,-49.82538
77.90000,-7.67790,-49.87907
78.00000,-7.68620,-49.93276
78.10001,-7.69460,-49.95961
78.20001,-7.70290,-50.01330
78.30000,-7.71120,-50.06699
78.40000,-7.71960,-50.12068
78.50000,-7.72790,-50.14753
78.60001,-7.73620,-50.20122
78.70001,-7.74460,-50.25491
78.80000,-7.75290,-50.28176
78.90000,-7.76120,-50.33545
79.00000,-7.76960,-50.38914
79.10001,-7.77790,-50.41598
79.20001,-7.78620,-50.46967
79.30000,-7.79460,-50.52337
79.40000,-7.80290,-50.55021
79.50000,-7.81120,-50.60390
79.60001,-7.81950,-50.65759
79.70001,-7.82790,-50.68444
79.80000,-7.83620,-50.76498
79.90000,-7.84450,-50.79182
80.00000,-7.85290,-50.81867
80.10001,-7.86120,-50.87236
80.20001,-7.86950,-50.89920
80.30000,-7.87790,-50.95289
80.40000,-7.88620,-51.00659
80.50001,-7.89450,-51.06028
80.60001,-7.90290,-51.11397
80.70001,-7.91120,-51.14081
80.80000,-7.91950,-51.16766
80.90000,-7.92790,-51.22135
81.00001,-7.93620,-51.24820
81.10001,-7.94450,-51.30189
81.20001,-7.95290,-51.35558
81.30000,-7.96120,-51.38242
81.40000,-7.96950,-51.46296
81.50001,-7.97790,-51.48981
81.60001,-7.98620,-51.51665
81.70001,-7.99450,-51.57034
81.80000,-8.00290,-51.59719
81.90000,-8.01120,-51.65088
82.00001,-8.01950,-51.67773
82.10001,-8.02790,-51.73142
82.20001,-8.03620,-51.78511
82.30000,-8.04450,-51.83880
82.40000,-8.05290,-51.86564
82.50001,-8.06120,-51.89249
82.60001,-8.06950,-51.75826
82.70001,-8.07790,-51.81195
82.80000,-8.08620,-51.91934
82.90000,-8.09450,-51.97303
83.00001,-8.10290,-52.05356
83.10001,-8.11120,-52.08041
83.20001,-8.11950,-52.13410
83.30000,-8.12790,-52.18779
83.40000,-8.13620,-52.21464
83.50001,-8.14450,-52.26833
83.60001,-8.15290,-52.32202
83.70001,-8.16120,-52.34886
83.80000,-8.16950,-52.40256
83.90000,-8.17790,-52.45625
84.00001,-8.18620,-52.48309
84.10001,-8.19450,-52.53678
84.20001,-8.20290,-52.56363
84.30000,-8.21120,-52.61732
84.40000,-8.21950,-52.64417
84.50001,-8.22790,-52.67101
84.60001,-8.23620,-52.72470
84.70001,-8.24450,-52.75155
84.80000,-8.25290,-52.80524
84.90000,-8.26120,-52.85893
85.00001,-8.26950,-52.88578
85.10001,-8.27790,-52.93947
85.20001,-8.28620,-52.96631
85.30000,-8.29450,-52.99316
85.40000,-8.30290,-53.04685
85.50001,-8.31120,-53.10054
85.60001,-8.31950,-53.15423
85.70001,-8.32790,-53.18108
85.80000,-8.33620,-53.23477
85.90000,-8.34450,-53.26161
86.00001,-8.35280,-53.31530
86.10001,-8.36120,-53.34215
86.20001,-8.36950,-53.39584
86.30000,-8.37780,-53.44953
86.40000,-8.38620,-53.47638
86.50001,-8.39450,-53.53007
86.60001,-8.40280,-53.55691
86.70001,-8.41120,-53.58376
86.80000,-8.41950,-53.63745
86.90000,-8.42780,-53.66430
87.00001,-8.43620,-53.71799
87.10001,-8.44450,-53.74483
87.20001,-8.45280,-53.79852
87.30000,-8.46120,-53.82537
87.40000,-8.46950,-53.87906
87.50001,-8.47780,-53.87906
87.60001,-8.48620,-53.85222
87.70001,-8.49450,-53.87906
87.80000,-8.50280,-53.93275
87.90000,-8.51120,-53.98644
88.00001,-8.51950,-54.01329
88.10001,-8.52780,-54.06698
88.20001,-8.53620,-54.12067
88.30000,-8.54450,-54.14752
88.40000,-8.55280,-54.22805
88.50001,-8.56120,-54.25490
88.60001,-8.56950,-54.30859
88.70001,-8.57780,-54.33544
88.80000,-8.58620,-54.38913
88.90000,-8.59450,-54.41597
89.00001,-8.60280,-54.46966
89.10001,-8.61120,-54.49651
89.20001,-8.61950,-54.55020
89.30000,-8.62780,-54.57705
89.40000,-8.63620,-54.63074
89.50001,-8.64450,-54.65758
89.60001,-8.65280,-54.71127
89.70001,-8.66120,-54.73812
89.80000,-8.66950,-54.79181
89.90000,-8.67780,-54.81866
90.00001,-8.68620,-54.84550
90.10001,-8.69450,-54.87235
90.20001,-8.70280,-54.92604
90.30000,-8.71120,-54.97973
90.40000,-8.71950,-55.00658
90.50001,-8.72780,-55.03342
90.60001,-8.73620,-55.08711
90.70001,-8.74450,-55.11396
90.80000,-8.75280,-55.14080
90.90000,-8.76120,-55.19449
91.00001,-8.76950,-55.22134
91.10001,-8.77780,-55.27503
91.20001,-8.78620,-55.30188
91.30000,-8.79450,-55.35557
91.40000,-8.80280,-55.38241
91.50001,-8.81120,-55.40926
91.60001,-8.81950,-55.43610
91.70001,-8.82780,-55.43610
91.80000,-8.83620,-55.46295
91.90000,-8.84450,-55.48980
92.00001,-8.85280,-55.54349
92.10001,-8.86110,-55.57033
92.20001,-8.86950,-55.62402
92.30000,-8.87780,-55.67771
92.40000,-8.88610,-55.70456
92.50001,-8.89450,-55.75825
92.60001,-8.90280,-55.78510
92.70001,-8.91110,-55.81194
92.80000,-8.91950,-55.86563
92.90000,-8.92780,-55.89248
93.00001,-8.93610,-55.94617
93.10001,-8.94450,-55.97302
93.20001,-8.95280,-55.99986
93.30000,-8.96110,-56.05355
93.40000,-8.96950,-56.08040
93.50001,-8.97780,-56.10724
93.60001,-8.98610,-56.16094
93.70001,-8.99450,-56.18778
93.80000,-9.00280,-56.24147
93.90000,-9.01110,-56.26832
94.00001,-9.01950,-56.29516
94.10001,-9.02780,-56.34885
94.20001,-9.03610,-56.37570
94.30000,-9.04450,-56.40255
94.40000,-9.05280,-56.45624
94.50001,-9.06110,-56.45624
94.60001,-9.06950,-56.50993
94.70001,-9.07780,-56.53677
94.80000,-9.08610,-56.56362
94.90000,-9.09450,-56.61731
95.00001,-9.10280,-56.64416
95.10001,-9.11110,-56.69785
95.20001,-9.11950,-56.72469
95.30000,-9.12780,-56.75154
95.40000,-9.13610,-56.80523
95.50001,-9.14450,-56.80523
95.60001,-9.15280,-56.85892
95.70001,-9.16110,-56.88577
95.80000,-9.16950,-56.91261
95.90000,-9.17780,-56.93946
96.00001,-9.18610,-56.99315
96.10001,-9.19450,-57.01999
96.20001,-9.20280,-57.07368
96.30000,-9.21110,-57.10053
96.40000,-9.21950,-57.12738
96.50001,-9.22780,-57.15422
96.60001,-9.23610,-57.20791
96.70001,-9.24450,-57.23476
96.80000,-9.25280,-57.26160
96.90000,-9.26110,-57.31529
97.00001,-9.26950,-57.34214
97.10001,-9.27780,-57.39583
97.20001,-9.28610,-57.42268
97.30000,-9.29450,-57.44952
97.40000,-9.30280,-57.50321
97.50001,-9.31110,-57.50321
97.60001,-9.31950,-57.55690
97.70001,-9.32780,-57.61060
97.80000,-9.33610,-57.61060
97.90000,-9.34450,-57.66429
98.00001,-9.35280,-57.69113
98.10001,-9.36110,-57.71798
98.20001,-9.36950,-57.74482
98.30000,-9.37780,-57.77167
98.40000,-9.38610,-57.82536
98.50001,-9.39440,-57.82536
98.60001,-9.40280,-57.87905
98.70001,-9.41110,-57.90590
98.80000,-9.41940,-57.93274
98.90000,-9.42780,-57.95959
99.00001,-9.43610,-58.01328
99.10001,-9.44440,-58.04012
99.20001,-9.45280,-58.09382
99.30000,-9.46110,-58.12066
99.40000,-9.46940,-58.14751
99.50001,-9.47780,-58.20120
99.60001,-9.48610,-58.22804
99.70001,-9.49440,-58.25489
99.80000,-9.50280,-58.28173
99.90000,-9.51110,-58.30858
100.00001,-9.51940,-58.36227
100.10001,-9.52780,-58.38912
100.20001,-9.53610,-58.41596
100.30000,-9.54440,-58.46965
100.40000,-9.55280,-58.49650
100.50001,-9.56110,-58.52335
100.60001,-9.56940,-58.55019
100.70001,-9.57780,-58.60388
100.80000,-9.58610,-58.63073
100.90000,-9.59440,-58.65757
101.00001,-9.60280,-58.68442
101.10001,-9.61110,-58.73811
101.20001,-9.61940,-58.76496
101.30000,-9.62780,-58.79180
101.40000,-9.63610,-58.81865
101.50001,-9.64440,-58.84549
101.60001,-9.65280,-58.87234
101.70001,-9.66110,-58.92603
101.80000,-9.66940,-58.92603
101.90000,-9.67780,-58.97972
102.00001,-9.68610,-59.00657
102.10001,-9.69440,-59.03341
102.20001,-9.70280,-59.08710
102.30000,-9.71110,-59.11395
102.40000,-9.71940,-59.14079
102.50001,-9.72780,-59.19448
102.60001,-9.73610,-59.19448
102.70001,-9.74440,-59.24818
102.80000,-9.75280,-59.30187
102.90000,-9.76110,-59.30187
103.00001,-9.76940,-59.35556
103.10001,-9.77780,-59.38240
103.20001,-9.78610,-59.40925
103.30000,-9.79440,-59.43609
103.40000,-9.80280,-59.48979
103.50001,-9.81110,-59.51663
103.60001,-9.81940,-59.54348
103.70001,-9.82780,-59.57032
103.80000,-9.83610,-59.59717
103.90000,-9.84440,-59.65086
104.00001,-9.85280,-59.67770
104.10001,-9.86110,-59.70455
104.20001,-9.86940,-59.73140
104.30000,-9.87780,-59.75824
104.40000,-9.88610,-59.78509
104.50001,-9.89440,-59.81193
104.60001,-9.90270,-59.83878
104.70001,-9.91110,-59.86562
104.80000,-9.91940,-59.89247
104.90000,-9.92770,-59.91931
105.00001,-9.93610,-59.94616
105.10001,-9.94440,-59.99985
105.20001,-9.95270,-60.02670
105.30000,-9.96110,-60.05354
105.40000,-9.96940,-60.08039
105.50001,-9.97770,-60.10723
105.60001,-9.98610,-60.16092
105.70001,-9.99440,-60.18777
105.80000,-10.00270,-60.21462
105.90000,-10.01110,-60.24146
