Time,Extension,Load
(sec),(mm),(N)
0.00000,-1.02200,-1.24832
0.10000,-1.03140,-1.35571
0.20000,-1.03970,-1.42282
0.30000,-1.04800,-1.47651
0.40000,-1.05640,-1.55705
0.50000,-1.06470,-1.62416
0.60000,-1.07300,-1.69128
0.70000,-1.08140,-1.77181
0.80000,-1.08970,-1.83893
0.90000,-1.09800,-1.90604
1.00000,-1.10640,-1.98658
1.10000,-1.11470,-2.04027
1.20000,-1.12300,-2.12080
1.30000,-1.13140,-2.17450
1.40000,-1.13970,-2.25503
1.50000,-1.14800,-2.33557
1.60000,-1.15640,-2.40268
1.70000,-1.16470,-2.46980
1.80000,-1.17300,-2.55033
1.90000,-1.18140,-2.61745
2.00000,-1.18970,-2.68456
2.10000,-1.19800,-2.75168
2.20000,-1.20640,-2.83221
2.30000,-1.21470,-2.89933
2.40000,-1.22300,-2.96644
2.50000,-1.23140,-3.03355
2.60000,-1.23970,-3.10067
2.70000,-1.24800,-3.18120
2.80000,-1.25640,-3.26174
2.90000,-1.26470,-3.32886
3.00000,-1.27300,-3.39597
3.10000,-1.28140,-3.46308
3.20000,-1.28970,-3.53020
3.30000,-1.29800,-3.61073
3.40000,-1.30640,-3.69127
3.50000,-1.31470,-3.75838
3.60000,-1.32300,-3.83892
3.70000,-1.33140,-3.90604
3.80000,-1.33970,-3.97315
3.90000,-1.34800,-4.04026
4.00000,-1.35640,-4.12080
4.10000,-1.36470,-4.18791
4.20000,-1.37300,-4.25503
4.30000,-1.38140,-4.32214
4.40000,-1.38970,-4.38926
4.50000,-1.39800,-4.46979
4.60000,-1.40630,-4.53691
4.70000,-1.41470,-4.61744
4.80000,-1.42300,-4.69798
4.90000,-1.43130,-4.75167
5.00000,-1.43970,-4.83221
5.10000,-1.44800,-4.91274
5.20000,-1.45630,-4.97986
5.30000,-1.46470,-5.04697
5.40000,-1.47300,-5.11409
5.50000,-1.48130,-5.19462
5.60000,-1.48970,-5.26174
5.70000,-1.49800,-5.34227
5.80000,-1.50630,-5.40939
5.90000,-1.51470,-5.47650
6.00000,-1.52300,-5.55704
6.10000,-1.53130,-5.62415
6.20000,-1.53970,-5.70469
6.30000,-1.54800,-5.78523
6.40000,-1.55630,-5.85234
6.50000,-1.56470,-5.91945
6.60000,-1.57300,-5.98657
6.70000,-1.58130,-6.06710
6.80000,-1.58970,-6.14764
6.90000,-1.59800,-6.21475
7.00000,-1.60630,-6.29529
7.10000,-1.61470,-6.34898
7.20000,-1.62300,-6.42952
7.30000,-1.63130,-6.49663
7.40000,-1.63970,-6.57717
7.50000,-1.64800,-6.64428
7.60000,-1.65630,-6.71140
7.70000,-1.66470,-6.79193
7.80000,-1.67300,-6.85905
7.90000,-1.68130,-6.93958
8.00000,-1.68970,-7.02012
8.10000,-1.69800,-7.08724
8.20000,-1.70630,-7.15435
8.30000,-1.71470,-7.22146
8.40000,-1.72300,-7.28858
8.50000,-1.73130,-7.35569
8.60000,-1.73970,-7.43623
8.70000,-1.74800,-7.51676
8.80000,-1.75630,-7.58388
8.90000,-1.76470,-7.65099
9.00000,-1.77300,-7.73153
9.10000,-1.78130,-7.79864
9.20000,-1.78970,-7.86576
9.30000,-1.79800,-7.94629
9.40000,-1.80630,-8.01341
9.50000,-1.81470,-8.08052
9.60000,-1.82300,-8.14764
9.70000,-1.83130,-8.22817
9.80000,-1.83970,-8.29529
9.90000,-1.84800,-8.38925
10.00000,-1.85630,-8.44294
10.10000,-1.86470,-8.51005
10.20000,-1.87300,-8.59059
10.30000,-1.88130,-8.64428
10.40000,-1.88970,-8.72481
10.50000,-1.89800,-8.79193
10.60000,-1.90630,-8.85904
10.70000,-1.91460,-8.93958
10.80000,-1.92300,-9.02012
10.90000,-1.93130,-9.08723
11.00000,-1.93960,-9.16777
11.10000,-1.94800,-9.23488
11.20000,-1.95630,-9.30199
11.30000,-1.96460,-9.36911
11.40000,-1.97300,-9.44965
11.50000,-1.98130,-9.53018
11.60000,-1.98960,-9.58387
11.70000,-1.99800,-9.66441
11.80000,-2.00630,-9.73152
11.90000,-2.01460,-9.81206
12.00000,-2.02300,-9.87917
12.10000,-2.03130,-9.95971
12.20000,-2.03960,-10.01340
12.30000,-2.04800,-10.09394
12.40000,-2.05630,-10.16105
12.50000,-2.06460,-10.22817
12.60000,-2.07300,-10.30870
12.70000,-2.08130,-10.38924
12.80000,-2.08960,-10.45635
12.90000,-2.09800,-10.52347
13.00000,-2.10630,-10.59058
13.10000,-2.11460,-10.65770
13.20000,-2.12300,-10.73823
13.30000,-2.13130,-10.81877
13.40000,-2.13960,-10.88588
13.50000,-2.14800,-10.95300
13.60000,-2.15630,-11.03353
13.70000,-2.16460,-11.08722
13.80000,-2.17300,-11.16776
13.90000,-2.18130,-11.24830
14.00000,-2.18960,-11.31541
14.10000,-2.19800,-11.39595
14.20000,-2.20630,-11.47649
14.30000,-2.21460,-11.53018
14.40000,-2.22300,-11.61071
14.50000,-2.23130,-11.69125
14.60000,-2.23960,-11.75836
14.70000,-2.24800,-11.83890
14.80000,-2.25630,-11.90601
14.90000,-2.26460,-11.98655
15.00000,-2.27300,-12.06709
15.10000,-2.28130,-12.13420
15.20000,-2.28960,-12.21474
15.30000,-2.29800,-12.28185
15.40000,-2.30630,-12.34897
15.50000,-2.31460,-12.42950
15.60000,-2.32300,-12.49662
15.70000,-2.33130,-12.57715
15.80000,-2.33960,-12.64427
15.90000,-2.34800,-12.72480
16.00000,-2.35630,-12.79192
16.10000,-2.36460,-12.87246
16.20000,-2.37300,-12.95299
16.30000,-2.38130,-13.02011
16.40000,-2.38960,-13.10064
16.50000,-2.39800,-13.15433
16.60000,-2.40630,-13.23487
16.70000,-2.41460,-13.31541
16.80000,-2.42300,-13.39594
16.90000,-2.43130,-13.46306
17.00000,-2.43960,-13.54359
17.10000,-2.44790,-13.61071
17.20000,-2.45630,-13.69125
17.30000,-2.46460,-13.75836
17.40000,-2.47290,-13.83890
17.50000,-2.48130,-13.91943
17.60000,-2.48960,-13.98655
17.70000,-2.49790,-14.05366
17.80000,-2.50630,-14.13420
17.90000,-2.51460,-14.20131
18.00000,-2.52290,-14.28185
18.10000,-2.53130,-14.36238
18.20000,-2.53960,-14.44292
18.30000,-2.54790,-14.51003
18.40000,-2.55630,-14.57715
18.50000,-2.56460,-14.64426
18.60000,-2.57290,-14.72480
18.70000,-2.58130,-14.79191
18.80000,-2.58960,-14.88587
18.90000,-2.59790,-14.95299
19.00000,-2.60630,-15.02010
19.10000,-2.61460,-15.10064
19.20000,-2.62290,-15.16775
19.30000,-2.63130,-15.24829
19.40000,-2.63960,-15.31540
19.50000,-2.64790,-15.38252
19.60000,-2.65630,-15.46305
19.70000,-2.66460,-15.54359
19.80000,-2.67290,-15.61070
19.90000,-2.68130,-15.70466
20.00000,-2.68960,-15.77178
20.10000,-2.69790,-15.83889
20.20000,-2.70630,-15.91943
20.30000,-2.71460,-15.98654
20.40000,-2.72290,-16.05366
20.50000,-2.73130,-16.13419
20.60000,-2.73960,-16.20131
20.70000,-2.74790,-16.28184
20.80000,-2.75630,-16.36238
20.90000,-2.76460,-16.44292
21.00000,-2.77290,-16.51003
21.10000,-2.78130,-16.59057
21.20000,-2.78960,-16.65768
21.30000,-2.79790,-16.73822
21.40000,-2.80630,-16.80533
21.50000,-2.81460,-16.88587
21.60000,-2.82290,-16.96640
21.70000,-2.83130,-17.03352
21.80000,-2.83960,-17.11406
21.90000,-2.84790,-17.18117
22.00000,-2.85630,-17.26171
22.10000,-2.86460,-17.32882
22.20000,-2.87290,-17.40936
22.30000,-2.88130,-17.48989
22.40000,-2.88960,-17.57043
22.50000,-2.89790,-17.63754
22.60000,-2.90630,-17.70466
22.70000,-2.91460,-17.77177
22.80000,-2.92290,-17.86573
22.90000,-2.93130,-17.94627
23.00000,-2.93960,-17.99996
23.10000,-2.94790,-18.08050
23.20000,-2.95620,-18.16103
23.30000,-2.96460,-18.22815
23.40000,-2.97290,-18.30868
23.50000,-2.98120,-18.38922
23.60000,-2.98960,-18.45633
23.70000,-2.99790,-18.51002
23.80000,-3.00620,-18.59056
23.90000,-3.01460,-18.67110
24.00000,-3.02290,-18.75163
24.10000,-3.03120,-18.83217
24.20000,-3.03960,-18.89929
24.30000,-3.04790,-18.97982
24.40000,-3.05620,-19.04694
24.50000,-3.06460,-19.11405
24.60000,-3.07290,-19.18116
24.70000,-3.08120,-19.26170
24.80000,-3.08960,-19.34224
24.90000,-3.09790,-19.42277
25.00000,-3.10620,-19.48989
25.10000,-3.11460,-19.55700
25.20000,-3.12290,-19.63754
25.30000,-3.13120,-19.70465
25.40000,-3.13960,-19.78519
25.50000,-3.14790,-19.85230
25.60000,-3.15620,-19.91942
25.70000,-3.16460,-19.99995
25.80000,-3.17290,-20.06707
25.90000,-3.18120,-20.14760
26.00000,-3.18960,-20.21472
26.10000,-3.19790,-20.29526
26.20000,-3.20620,-20.36237
26.30000,-3.21460,-20.44291
26.40000,-3.22290,-20.51002
26.50000,-3.23120,-20.57713
26.60000,-3.23960,-20.65767
26.70000,-3.24790,-20.72478
26.80000,-3.25620,-20.80532
26.90000,-3.26460,-20.87243
27.00000,-3.27290,-20.95297
27.10000,-3.28120,-21.02009
27.20000,-3.28960,-21.10062
27.30000,-3.29790,-21.16774
27.40000,-3.30620,-21.23485
27.50000,-3.31460,-21.30196
27.60000,-3.32290,-21.38250
27.70000,-3.33120,-21.46304
27.80000,-3.33960,-21.53015
27.90000,-3.34790,-21.61069
28.00000,-3.35620,-21.67780
28.10000,-3.36460,-21.74492
28.20000,-3.37290,-21.82545
28.30000,-3.38120,-21.90599
28.40000,-3.38960,-21.97310
28.50000,-3.39790,-22.05364
28.60000,-3.40620,-22.10733
28.70000,-3.41460,-22.18787
28.80000,-3.42290,-22.25498
28.90000,-3.43120,-22.33552
29.00000,-3.43960,-22.42948
29.10000,-3.44790,-22.48317
29.20000,-3.45620,-22.55028
29.30000,-3.46460,-22.61740
29.40000,-3.47290,-22.69793
29.50000,-3.48120,-22.77847
29.60000,-3.48950,-22.84558
29.70000,-3.49790,-22.92612
29.80000,-3.50620,-22.97981
29.90000,-3.51450,-23.06035
30.00000,-3.52290,-23.12746
30.10000,-3.53120,-23.20800
30.20000,-3.53950,-23.28854
30.30000,-3.54790,-23.35565
30.40000,-3.55620,-23.42276
30.50000,-3.56450,-23.50330
30.60000,-3.57290,-23.57041
30.70000,-3.58120,-23.65095
30.80000,-3.58950,-23.73149
30.90000,-3.59790,-23.79860
31.00000,-3.60620,-23.87914
31.10000,-3.61450,-23.94625
31.20000,-3.62290,-24.01337
31.30000,-3.63120,-24.09390
31.40000,-3.63950,-24.16102
31.50000,-3.64790,-24.24155
31.60000,-3.65620,-24.30867
31.70000,-3.66450,-24.37578
31.80000,-3.67290,-24.45632
31.90000,-3.68120,-24.52343
32.00000,-3.68950,-24.59055
32.10000,-3.69790,-24.67108
32.20000,-3.70620,-24.73820
32.30000,-3.71450,-24.81873
32.40000,-3.72290,-24.88585
32.50000,-3.73120,-24.95296
32.60000,-3.73950,-25.03350
32.70000,-3.74790,-25.10061
32.80000,-3.75620,-25.16773
32.90000,-3.76450,-25.23484
33.00000,-3.77290,-25.31538
33.10000,-3.78120,-25.38249
33.20000,-3.78950,-25.47645
33.30000,-3.79790,-25.54356
33.40000,-3.80620,-25.61068
33.50000,-3.81450,-25.67779
33.60000,-3.82290,-25.74491
33.70000,-3.83120,-25.82544
33.80000,-3.83950,-25.89256
33.90000,-3.84790,-25.97309
34.00000,-3.85620,-26.04021
34.10000,-3.86450,-26.10732
34.20000,-3.87290,-26.17443
34.30000,-3.88120,-26.26839
34.40000,-3.88950,-26.33551
34.50000,-3.89790,-26.40262
34.60000,-3.90620,-26.48316
34.70000,-3.91450,-26.53685
34.80000,-3.92290,-26.61739
34.90000,-3.93120,-26.68450
35.00000,-3.93950,-26.76504
35.10000,-3.94790,-26.84557
35.20000,-3.95620,-26.91269
35.30000,-3.96450,-26.97980
35.40000,-3.97290,-27.04692
35.50000,-3.98120,-27.11403
35.60000,-3.98950,-27.19457
35.70000,-3.99780,-27.26168
35.80000,-4.00620,-27.34222
35.90000,-4.01450,-27.40933
36.00000,-4.02280,-27.47644
36.10000,-4.03120,-27.54356
36.20000,-4.03950,-27.61067
36.30000,-4.04780,-27.69121
36.40000,-4.05620,-27.77175
36.50000,-4.06450,-27.83886
36.60000,-4.07280,-27.90597
36.70000,-4.08120,-27.97309
36.80000,-4.08950,-28.04020
36.90000,-4.09780,-28.13416
37.00000,-4.10620,-28.20128
37.10000,-4.11450,-28.28181
37.20000,-4.12280,-28.34893
37.30000,-4.13120,-28.41604
37.40000,-4.13950,-28.49658
37.50000,-4.14780,-28.56369
