Time,Extension,Load
(sec),(mm),(N)
0.00000,-1.03030,-1.26175
0.10000,-1.03950,-1.36913
0.20000,-1.04780,-1.42282
0.30000,-1.05620,-1.48993
0.40000,-1.06450,-1.54363
0.50000,-1.07280,-1.63758
0.60000,-1.08120,-1.69128
0.70000,-1.08950,-1.75839
0.80000,-1.09780,-1.82550
0.90000,-1.10620,-1.90604
1.00000,-1.11450,-1.95973
1.10000,-1.12280,-2.04027
1.20000,-1.13120,-2.09396
1.30000,-1.13950,-2.17450
1.40000,-1.14780,-2.22819
1.50000,-1.15620,-2.29530
1.60000,-1.16450,-2.37584
1.70000,-1.17280,-2.44295
1.80000,-1.18120,-2.51007
1.90000,-1.18950,-2.57718
2.00000,-1.19780,-2.64429
2.10000,-1.20620,-2.71141
2.20000,-1.21450,-2.77852
2.30000,-1.22280,-2.84564
2.40000,-1.23120,-2.91275
2.50000,-1.23950,-2.97986
2.60000,-1.24780,-3.04698
2.70000,-1.25620,-3.11409
2.80000,-1.26450,-3.19463
2.90000,-1.27280,-3.24832
3.00000,-1.28110,-3.31543
3.10000,-1.28950,-3.38255
3.20000,-1.29780,-3.44966
3.30000,-1.30610,-3.51677
3.40000,-1.31450,-3.58389
3.50000,-1.32280,-3.65100
3.60000,-1.33110,-3.73154
3.70000,-1.33950,-3.79865
3.80000,-1.34780,-3.86577
3.90000,-1.35610,-3.93288
4.00000,-1.36450,-4.01342
4.10000,-1.37280,-4.06711
4.20000,-1.38110,-4.13422
4.30000,-1.38950,-4.20134
4.40000,-1.39780,-4.26845
4.50000,-1.40610,-4.33556
4.60000,-1.41450,-4.40268
4.70000,-1.42280,-4.46979
4.80000,-1.43110,-4.53691
4.90000,-1.43950,-4.61744
5.00000,-1.44780,-4.67113
5.10000,-1.45610,-4.75167
5.20000,-1.46450,-4.81878
5.30000,-1.47280,-4.87248
5.40000,-1.48110,-4.93959
5.50000,-1.48950,-5.02013
5.60000,-1.49780,-5.08724
5.70000,-1.50610,-5.14093
5.80000,-1.51450,-5.23489
5.90000,-1.52280,-5.28858
6.00000,-1.53110,-5.35570
6.10000,-1.53950,-5.42281
6.20000,-1.54780,-5.48992
6.30000,-1.55610,-5.57046
6.40000,-1.56450,-5.63757
6.50000,-1.57280,-5.69127
6.60000,-1.58110,-5.77180
6.70000,-1.58950,-5.82549
6.80000,-1.59780,-5.89261
6.90000,-1.60610,-5.97314
7.00000,-1.61450,-6.04026
7.10000,-1.62280,-6.10737
7.20000,-1.63110,-6.17449
7.30000,-1.63950,-6.25502
7.40000,-1.64780,-6.30871
7.50000,-1.65610,-6.37583
7.60000,-1.66450,-6.44294
7.70000,-1.67280,-6.51006
7.80000,-1.68110,-6.57717
7.90000,-1.68950,-6.65771
8.00000,-1.69780,-6.72482
8.10000,-1.70610,-6.79193
8.20000,-1.71450,-6.85905
8.30000,-1.72280,-6.92616
8.40000,-1.73110,-6.99328
8.50000,-1.73950,-7.06039
8.60000,-1.74780,-7.12750
8.70000,-1.75610,-7.20804
8.80000,-1.76450,-7.26173
8.90000,-1.77280,-7.34227
9.00000,-1.78110,-7.40938
9.10000,-1.78940,-7.47650
9.20000,-1.79780,-7.55703
9.30000,-1.80610,-7.62415
9.40000,-1.81440,-7.67784
9.50000,-1.82280,-7.74495
9.60000,-1.83110,-7.81207
9.70000,-1.83940,-7.89260
9.80000,-1.84780,-7.97314
9.90000,-1.85610,-8.04025
10.00000,-1.86440,-8.10737
10.10000,-1.87280,-8.17448
10.20000,-1.88110,-8.24159
10.30000,-1.88940,-8.30871
10.40000,-1.89780,-8.37582
10.50000,-1.90610,-8.44294
10.60000,-1.91440,-8.51005
10.70000,-1.92280,-8.57716
10.80000,-1.93110,-8.64428
10.90000,-1.93940,-8.72481
11.00000,-1.94780,-8.79193
11.10000,-1.95610,-8.87247
11.20000,-1.96440,-8.93958
11.30000,-1.97280,-9.00669
11.40000,-1.98110,-9.07381
11.50000,-1.98940,-9.15434
11.60000,-1.99780,-9.22146
11.70000,-2.00610,-9.28857
11.80000,-2.01440,-9.35569
11.90000,-2.02280,-9.43622
12.00000,-2.03110,-9.50334
12.10000,-2.03940,-9.57045
12.20000,-2.04780,-9.63756
12.30000,-2.05610,-9.70468
12.40000,-2.06440,-9.78521
12.50000,-2.07280,-9.86575
12.60000,-2.08110,-9.93287
12.70000,-2.08940,-9.99998
12.80000,-2.09780,-10.08052
12.90000,-2.10610,-10.13421
13.00000,-2.11440,-10.20132
13.10000,-2.12280,-10.28186
13.20000,-2.13110,-10.36239
13.30000,-2.13940,-10.42951
13.40000,-2.14780,-10.51005
13.50000,-2.15610,-10.56374
13.60000,-2.16440,-10.63085
13.70000,-2.17280,-10.69796
13.80000,-2.18110,-10.77850
13.90000,-2.18940,-10.84561
14.00000,-2.19780,-10.92615
14.10000,-2.20610,-10.99327
14.20000,-2.21440,-11.06038
14.30000,-2.22280,-11.14092
14.40000,-2.23110,-11.20803
14.50000,-2.23940,-11.27514
14.60000,-2.24780,-11.35568
14.70000,-2.25610,-11.40937
14.80000,-2.26440,-11.47649
14.90000,-2.27280,-11.57045
15.00000,-2.28110,-11.62414
15.10000,-2.28940,-11.70467
15.20000,-2.29780,-11.78521
15.30000,-2.30610,-11.85232
15.40000,-2.31440,-11.91944
15.50000,-2.32270,-11.98655
15.60000,-2.33110,-12.05367
15.70000,-2.33940,-12.13420
15.80000,-2.34770,-12.20132
15.90000,-2.35610,-12.26843
16.00000,-2.36440,-12.33554
16.10000,-2.37270,-12.41608
16.20000,-2.38110,-12.48319
16.30000,-2.38940,-12.56373
16.40000,-2.39770,-12.61742
16.50000,-2.40610,-12.68454
16.60000,-2.41440,-12.75165
16.70000,-2.42270,-12.81876
16.80000,-2.43110,-12.89930
16.90000,-2.43940,-12.97984
17.00000,-2.44770,-13.04695
17.10000,-2.45610,-13.11407
17.20000,-2.46440,-13.19460
17.30000,-2.47270,-13.26172
17.40000,-2.48110,-13.32883
17.50000,-2.48940,-13.39594
17.60000,-2.49770,-13.46306
17.70000,-2.50610,-13.53017
17.80000,-2.51440,-13.61071
17.90000,-2.52270,-13.69125
18.00000,-2.53110,-13.75836
18.10000,-2.53940,-13.83890
18.20000,-2.54770,-13.89259
18.30000,-2.55610,-13.95970
18.40000,-2.56440,-14.04024
18.50000,-2.57270,-14.10735
18.60000,-2.58110,-14.18789
18.70000,-2.58940,-14.25500
18.80000,-2.59770,-14.32212
18.90000,-2.60610,-14.40265
19.00000,-2.61440,-14.46977
19.10000,-2.62270,-14.53688
19.20000,-2.63110,-14.61742
19.30000,-2.63940,-14.68453
19.40000,-2.64770,-14.75165
19.50000,-2.65610,-14.81876
19.60000,-2.66440,-14.89930
19.70000,-2.67270,-14.96641
19.80000,-2.68110,-15.04695
19.90000,-2.68940,-15.11406
20.00000,-2.69770,-15.19460
20.10000,-2.70610,-15.26171
20.20000,-2.71440,-15.32882
20.30000,-2.72270,-15.40936
20.40000,-2.73110,-15.47648
20.50000,-2.73940,-15.54359
20.60000,-2.74770,-15.62413
20.70000,-2.75610,-15.69124
20.80000,-2.76440,-15.75835
20.90000,-2.77270,-15.83889
21.00000,-2.78110,-15.90600
21.10000,-2.78940,-15.98654
21.20000,-2.79770,-16.05366
21.30000,-2.80610,-16.12077
21.40000,-2.81440,-16.20131
21.50000,-2.82270,-16.26842
21.60000,-2.83100,-16.33553
21.70000,-2.83940,-16.41607
21.80000,-2.84770,-16.48318
21.90000,-2.85600,-16.55030
22.00000,-2.86440,-16.63083
22.10000,-2.87270,-16.71137
22.20000,-2.88100,-16.77849
22.30000,-2.88940,-16.85902
22.40000,-2.89770,-16.92614
22.50000,-2.90600,-16.99325
22.60000,-2.91440,-17.07379
22.70000,-2.92270,-17.14090
22.80000,-2.93100,-17.20801
22.90000,-2.93940,-17.27513
23.00000,-2.94770,-17.34224
23.10000,-2.95600,-17.42278
23.20000,-2.96440,-17.50332
23.30000,-2.97270,-17.57043
23.40000,-2.98100,-17.65097
23.50000,-2.98940,-17.70466
23.60000,-2.99770,-17.77177
23.70000,-3.00600,-17.83889
23.80000,-3.01440,-17.91942
23.90000,-3.02270,-17.98654
24.00000,-3.03100,-18.06707
24.10000,-3.03940,-18.13419
24.20000,-3.04770,-18.20130
24.30000,-3.05600,-18.28184
24.40000,-3.06440,-18.34895
24.50000,-3.07270,-18.41607
24.60000,-3.08100,-18.49660
24.70000,-3.08940,-18.55029
24.80000,-3.09770,-18.63083
24.90000,-3.10600,-18.69794
25.00000,-3.11440,-18.77848
25.10000,-3.12270,-18.85902
25.20000,-3.13100,-18.92613
25.30000,-3.13940,-18.99324
25.40000,-3.14770,-19.06036
25.50000,-3.15600,-19.14090
25.60000,-3.16440,-19.20801
25.70000,-3.17270,-19.27512
25.80000,-3.18100,-19.34224
25.90000,-3.18940,-19.42277
26.00000,-3.19770,-19.48989
26.10000,-3.20600,-19.57042
26.20000,-3.21440,-19.63754
26.30000,-3.22270,-19.70465
26.40000,-3.23100,-19.77177
26.50000,-3.23940,-19.85230
26.60000,-3.24770,-19.90599
26.70000,-3.25600,-19.98653
26.80000,-3.26440,-20.06707
26.90000,-3.27270,-20.13418
27.00000,-3.28100,-20.20130
27.10000,-3.28940,-20.26841
27.20000,-3.29770,-20.34895
27.30000,-3.30600,-20.41606
27.40000,-3.31440,-20.48317
27.50000,-3.32270,-20.56371
27.60000,-3.33100,-20.63082
27.70000,-3.33940,-20.69794
27.80000,-3.34770,-20.75163
27.90000,-3.35600,-20.83217
28.00000,-3.36430,-20.91270
28.10000,-3.37270,-20.97982
28.20000,-3.38100,-21.06035
28.30000,-3.38930,-21.11404
28.40000,-3.39770,-21.18116
28.50000,-3.40600,-21.26170
28.60000,-3.41430,-21.32881
28.70000,-3.42270,-21.40935
28.80000,-3.43100,-21.47646
28.90000,-3.43930,-21.54357
29.00000,-3.44770,-21.62411
29.10000,-3.45600,-21.67780
29.20000,-3.46430,-21.75834
29.30000,-3.47270,-21.82545
29.40000,-3.48100,-21.89257
29.50000,-3.48930,-21.95968
29.60000,-3.49770,-22.04022
29.70000,-3.50600,-22.09391
29.80000,-3.51430,-22.17444
29.90000,-3.52270,-22.24156
30.00000,-3.53100,-22.30867
30.10000,-3.53930,-22.38921
30.20000,-3.54770,-22.45632
30.30000,-3.55600,-22.52344
30.40000,-3.56430,-22.60397
30.50000,-3.57270,-22.65767
30.60000,-3.58100,-22.73820
30.70000,-3.58930,-22.80532
30.80000,-3.59770,-22.88585
30.90000,-3.60600,-22.95297
31.00000,-3.61430,-23.02008
31.10000,-3.62270,-23.08719
31.20000,-3.63100,-23.16773
31.30000,-3.63930,-23.22142
31.40000,-3.64770,-23.31538
31.50000,-3.65610,-23.36907
31.60000,-3.66440,-23.44961
31.70000,-3.67270,-23.51672
31.80000,-3.68110,-23.57041
31.90000,-3.68940,-23.63753
32.00000,-3.69770,-23.70464
32.10000,-3.70610,-23.78518
32.20000,-3.71440,-23.86572
32.30000,-3.72270,-23.93283
32.40000,-3.73110,-23.99994
32.50000,-3.73940,-24.06706
32.60000,-3.74770,-24.13417
32.70000,-3.75610,-24.20129
32.80000,-3.76440,-24.28182
32.90000,-3.77270,-24.33551
33.00000,-3.78110,-24.41605
33.10000,-3.78940,-24.48316
33.20000,-3.79770,-24.56370
33.30000,-3.80610,-24.61739
33.40000,-3.81440,-24.69793
33.50000,-3.82270,-24.77847
33.60000,-3.83110,-24.83216
33.70000,-3.83940,-24.89927
33.80000,-3.84770,-24.96638
33.90000,-3.85610,-25.04692
34.00000,-3.86440,-25.11403
34.10000,-3.87270,-25.19457
34.20000,-3.88110,-25.26169
34.30000,-3.88940,-25.32880
34.40000,-3.89770,-25.39591
34.50000,-3.90600,-25.44960
34.60000,-3.91440,-25.53014
34.70000,-3.92270,-25.59725
34.80000,-3.93100,-25.66437
34.90000,-3.93940,-25.74491
35.00000,-3.94770,-25.81202
35.10000,-3.95600,-25.87913
35.20000,-3.96440,-25.94625
35.30000,-3.97270,-26.02678
35.40000,-3.98100,-26.08048
35.50000,-3.98940,-26.14759
35.60000,-3.99770,-26.21470
35.70000,-4.00600,-26.29524
35.80000,-4.01440,-26.36235
35.90000,-4.02270,-26.42947
36.00000,-4.03100,-26.48316
36.10000,-4.03940,-26.56370
36.20000,-4.04770,-26.63081
36.30000,-4.05600,-26.69792
36.40000,-4.06440,-26.76504
36.50000,-4.07270,-26.83215
36.60000,-4.08100,-26.89926
36.70000,-4.08940,-26.96638
36.80000,-4.09770,-27.04692
36.90000,-4.10600,-27.11403
37.00000,-4.11440,-27.19457
37.10000,-4.12270,-27.24826
37.20000,-4.13100,-27.31537
37.30000,-4.13940,-27.38249
37.40000,-4.14770,-27.44960
37.50000,-4.15600,-27.53014
37.60000,-4.16440,-27.59725
37.70000,-4.17270,-27.66436
37.80000,-4.18100,-27.73148
37.90000,-4.18940,-27.79859
38.00000,-4.19770,-27.86571
38.10000,-4.20600,-27.93282
38.20000,-4.21440,-28.01336
38.30000,-4.22270,-28.08047
38.40000,-4.23100,-28.14758
38.50000,-4.23940,-28.21470
38.60000,-4.24770,-28.28181
38.70000,-4.25600,-28.34893
38.80000,-4.26440,-28.41604
38.90000,-4.27270,-28.48315
39.00000,-4.28100,-28.55027
39.10000,-4.28940,-28.63080
39.20000,-4.29770,-28.68450
39.30000,-4.30600,-28.76503
39.40000,-4.31440,-28.83215
39.50000,-4.32270,-28.89926
39.60000,-4.33100,-28.96637
39.70000,-4.33940,-29.03349
39.80000,-4.34770,-29.08718
39.90000,-4.35600,-29.16772
40.00000,-4.36440,-29.23483
40.10000,-4.37270,-29.30194
40.20000,-4.38100,-29.36906
40.30000,-4.38940,-29.43617
40.40000,-4.39770,-29.51671
40.50000,-4.40600,-29.57040
40.60000,-4.41440,-29.63751
40.70000,-4.42270,-29.70463
40.80000,-4.43100,-29.77174
40.90000,-4.43930,-29.85228
41.00000,-4.44770,-29.90597
41.10000,-4.45600,-29.97308
41.20000,-4.46430,-30.04020
41.30000,-4.47270,-30.12073
41.40000,-4.48100,-30.18785
41.50000,-4.48930,-30.25496
41.60000,-4.49770,-30.30865
41.70000,-4.50600,-30.37577
41.80000,-4.51430,-30.44288
41.90000,-4.52270,-30.50999
42.00000,-4.53100,-30.57711
42.10000,-4.53930,-30.64422
42.20000,-4.54770,-30.72476
42.30000,-4.55600,-30.79187
42.40000,-4.56430,-30.85899
42.50000,-4.57270,-30.92610
42.60000,-4.58100,-30.97979
42.70000,-4.58930,-31.04691
42.80000,-4.59770,-31.11402
42.90000,-4.60600,-31.19456
43.00000,-4.61430,-31.26167
43.10000,-4.62270,-31.32878
43.20000,-4.63100,-31.38247
43.30000,-4.63930,-31.44959
43.40000,-4.64770,-31.51670
43.50000,-4.65600,-31.58382
43.60000,-4.66430,-31.65093
43.70000,-4.67270,-31.71804
43.80000,-4.68100,-31.78516
43.90000,-4.68930,-31.83885
44.00000,-4.69770,-31.91939
44.10000,-4.70600,-31.98650
44.20000,-4.71430,-32.06704
44.30000,-4.72270,-32.12073
44.40000,-4.73100,-32.18784
44.50000,-4.73930,-32.25496
44.60000,-4.74770,-32.32207
44.70000,-4.75600,-32.38918
44.80000,-4.76430,-32.44287
44.90000,-4.77270,-32.52341
45.00000,-4.78100,-32.57710
45.10000,-4.78930,-32.65764
45.20000,-4.79770,-32.72475
45.30000,-4.80600,-32.79187
45.40000,-4.81430,-32.85898
45.50000,-4.82270,-32.92610
45.60000,-4.83100,-32.99321
45.70000,-4.83930,-33.04690
45.80000,-4.84770,-33.11401
45.90000,-4.85600,-33.18113
46.00000,-4.86430,-33.24824
46.10000,-4.87270,-33.31536
46.20000,-4.88100,-33.36905
46.30000,-4.88930,-33.44958
46.40000,-4.89770,-33.51670
46.50000,-4.90600,-33.58381
46.60000,-4.91430,-33.65093
46.70000,-4.92270,-33.70462
46.80000,-4.93100,-33.77173
46.90000,-4.93930,-33.83884
47.00000,-4.94760,-33.90596
47.10000,-4.95600,-33.97307
47.20000,-4.96430,-34.04019
47.30000,-4.97260,-34.10730
47.40000,-4.98100,-34.17441
47.50000,-4.98930,-34.24153
47.60000,-4.99760,-34.29522
47.70000,-5.00600,-34.37576
47.80000,-5.01430,-34.42945
47.90000,-5.02260,-34.49656
48.00000,-5.03100,-34.55025
48.10000,-5.03930,-34.61737
48.20000,-5.04760,-34.69790
48.30000,-5.05600,-34.76502
48.40000,-5.06430,-34.83213
48.50000,-5.07260,-34.89924
48.60000,-5.08100,-34.95294
48.70000,-5.08930,-35.00663
48.80000,-5.09760,-35.07374
48.90000,-5.10600,-35.14085
49.00000,-5.11430,-35.20797
49.10000,-5.12260,-35.27508
49.20000,-5.13100,-35.32877
49.30000,-5.13930,-35.40931
49.40000,-5.14760,-35.44958
49.50000,-5.15600,-35.53012
49.60000,-5.16430,-35.59723
49.70000,-5.17260,-35.66434
49.80000,-5.18100,-35.71803
49.90000,-5.18930,-35.78515
50.00000,-5.19760,-35.83884
50.10000,-5.20600,-35.90595
50.20000,-5.21430,-35.97307
50.30000,-5.22260,-36.05360
50.40000,-5.23100,-36.10730
50.50000,-5.23930,-36.16099
50.60000,-5.24760,-36.22810
50.70000,-5.25600,-36.28179
50.80000,-5.26430,-36.34891
50.90000,-5.27260,-36.41602
51.00000,-5.28100,-36.48313
51.10000,-5.28930,-36.53682
51.20000,-5.29760,-36.60394
51.30000,-5.30600,-36.67105
51.40000,-5.31430,-36.73817
51.50000,-5.32260,-36.80528
51.60000,-5.33100,-36.85897
51.70000,-5.33930,-36.92608
51.80000,-5.34760,-36.97978
51.90000,-5.35600,-37.04689
52.00000,-5.36430,-37.11400
52.10000,-5.37260,-37.16770
52.20000,-5.38100,-37.23481
52.30000,-5.38930,-37.30192
52.40000,-5.39760,-37.36904
52.50000,-5.40600,-37.43615
52.60000,-5.41430,-37.50326
52.70000,-5.42260,-37.54353
52.80000,-5.43100,-37.61065
52.90000,-5.43930,-37.66434
53.00000,-5.44760,-37.73145
53.10000,-5.45600,-37.79857
53.20000,-5.46430,-37.86568
53.30000,-5.47260,-37.93279
53.40000,-5.48090,-37.98648
53.50000,-5.48930,-38.04018
53.60000,-5.49760,-38.10729
53.70000,-5.50590,-38.16098
53.80000,-5.51430,-38.22810
53.90000,-5.52260,-38.29521
54.00000,-5.53090,-38.34890
54.10000,-5.53930,-38.41601
54.20000,-5.54760,-38.48313
54.30000,-5.55590,-38.53682
54.40000,-5.56430,-38.60393
54.50000,-5.57260,-38.65762
54.60000,-5.58090,-38.71132
54.70000,-5.58930,-38.77843
54.80000,-5.59760,-38.83212
54.90000,-5.60590,-38.89923
55.00000,-5.61430,-38.96635
55.10000,-5.62260,-39.02004
55.20000,-5.63090,-39.08715
55.30000,-5.63930,-39.14084
55.40000,-5.64760,-39.19454
55.50000,-5.65590,-39.24823
55.60000,-5.66430,-39.32876
55.70000,-5.67260,-39.38245
55.80000,-5.68090,-39.43615
55.90000,-5.68930,-39.50326
56.00000,-5.69760,-39.55695
56.10000,-5.70590,-39.62406
56.20000,-5.71430,-39.67776
56.30000,-5.72260,-39.74487
56.40000,-5.73090,-39.81198
56.50000,-5.73930,-39.85225
56.60000,-5.74760,-39.93279
56.70000,-5.75590,-39.98648
56.80000,-5.76430,-40.04017
56.90000,-5.77260,-40.09386
57.00000,-5.78090,-40.16098
57.10000,-5.78930,-40.21467
57.20000,-5.79760,-40.28178
57.30000,-5.80590,-40.33547
57.40000,-5.81430,-40.38916
57.50000,-5.82260,-40.45628
57.60000,-5.83090,-40.52339
57.70000,-5.83930,-40.56366
57.80000,-5.84760,-40.61735
57.90000,-5.85590,-40.67104
58.00000,-5.86430,-40.73816
58.10000,-5.87260,-40.79185
58.20000,-5.88090,-40.84554
58.30000,-5.88930,-40.91265
58.40000,-5.89760,-40.97977
58.50000,-5.90590,-41.04688
58.60000,-5.91430,-41.08715
58.70000,-5.92260,-41.15426
58.80000,-5.93090,-41.20795
58.90000,-5.93930,-41.27507
59.00000,-5.94760,-41.32876
59.10000,-5.95590,-41.39587
59.20000,-5.96430,-41.44956
59.30000,-5.97260,-41.50325
59.40000,-5.98090,-41.57037
59.50000,-5.98920,-41.61064
59.60000,-5.99760,-41.67775
59.70000,-6.00590,-41.74486
59.80000,-6.01420,-41.78513
59.90000,-6.02260,-41.85225
60.00000,-6.03090,-41.90594
60.10000,-6.03920,-41.95963
60.20000,-6.04760,-42.01332
60.30000,-6.05590,-42.08043
60.40000,-6.06420,-42.13413
60.50000,-6.07260,-42.20124
60.60000,-6.08090,-42.25493
60.70000,-6.08920,-42.30862
60.80000,-6.09760,-42.36231
60.90000,-6.10590,-42.41600
61.00000,-6.11420,-42.46969
61.10000,-6.12260,-42.53681
61.20000,-6.13090,-42.59050
61.30000,-6.13920,-42.65761
61.40000,-6.14760,-42.71131
61.50000,-6.15590,-42.76500
61.60000,-6.16420,-42.81869
61.70000,-6.17260,-42.88580
61.80000,-6.18090,-42.93949
61.90000,-6.18920,-42.99318
62.00000,-6.19760,-43.04687
62.10000,-6.20590,-43.10057
62.20000,-6.21420,-43.16768
62.30000,-6.22260,-43.22137
62.40000,-6.23090,-43.26164
62.50000,-6.23920,-43.32875
62.60000,-6.24760,-43.38244
62.70000,-6.25590,-43.43614
62.80000,-6.26420,-43.48983
62.90000,-6.27260,-43.54352
63.00000,-6.28090,-43.59721
63.10000,-6.28920,-43.66432
63.20000,-6.29760,-43.71801
63.30000,-6.30590,-43.77171
63.40000,-6.31420,-43.82540
63.50000,-6.32260,-43.87909
63.60000,-6.33090,-43.94620
63.70000,-6.33920,-43.99989
63.80000,-6.34760,-44.05358
63.90000,-6.35590,-44.10727
64.00000,-6.36420,-44.16097
64.10001,-6.37260,-44.21466
64.20000,-6.38090,-44.26835
64.30000,-6.38920,-44.30862
64.40000,-6.39760,-44.36231
64.50000,-6.40590,-44.42942
64.60001,-6.41420,-44.48311
64.70000,-6.42260,-44.55023
64.80000,-6.43090,-44.60392
64.90000,-6.43920,-44.64419
65.00000,-6.44760,-44.69788
65.10001,-6.45590,-44.76499
65.20000,-6.46420,-44.80526
65.30000,-6.47260,-44.85895
65.40000,-6.48090,-44.91264
65.50000,-6.48920,-44.97976
65.60001,-6.49760,-45.02002
65.70001,-6.50590,-45.07372
65.80000,-6.51420,-45.12741
65.90000,-6.52250,-45.18110
66.00000,-6.53090,-45.23479
66.10001,-6.53920,-45.27506
66.20001,-6.54750,-45.31533
66.30000,-6.55590,-45.38244
66.40000,-6.56420,-45.43613
66.50000,-6.57250,-45.48982
66.60001,-6.58090,-45.55694
66.70001,-6.58920,-45.59720
66.80000,-6.59750,-45.65089
66.90000,-6.60590,-45.70459
67.00000,-6.61420,-45.74485
67.10001,-6.62250,-45.81197
67.20001,-6.63090,-45.86566
67.30000,-6.63920,-45.91935
67.40000,-6.64750,-45.97304
67.50000,-6.65590,-46.01331
67.60001,-6.66420,-46.06700
67.70001,-6.67250,-46.13412
67.80000,-6.68090,-46.17438
67.90000,-6.68920,-46.22807
68.00000,-6.69750,-46.28177
68.10001,-6.70590,-46.33546
68.20001,-6.71420,-46.38915
68.30000,-6.72250,-46.44284
68.40000,-6.73090,-46.49653
68.50000,-6.73920,-46.55022
68.60001,-6.74750,-46.59049
68.70001,-6.75590,-46.64418
68.80000,-6.76420,-46.69787
68.90000,-6.77250,-46.73814
69.00000,-6.78090,-46.79183
69.10001,-6.78920,-46.84552
69.20001,-6.79750,-46.89921
69.30000,-6.80590,-46.95290
69.40000,-6.81420,-47.00660
69.50000,-6.82250,-47.04686
69.60001,-6.83090,-47.10056
69.70001,-6.83920,-47.14082
69.80000,-6.84750,-47.19452
69.90000,-6.85590,-47.24821
70.00000,-6.86420,-47.30190
70.10001,-6.87250,-47.35559
70.20001,-6.88090,-47.39586
70.30000,-6.88920,-47.44955
70.40000,-6.89750,-47.50324
70.50000,-6.90590,-47.57035
70.60001,-6.91420,-47.62404
70.70001,-6.92250,-47.67774
70.80000,-6.93090,-47.70458
70.90000,-6.93920,-47.75827
71.00000,-6.94750,-47.81196
71.10001,-6.95590,-47.86565
71.20001,-6.96420,-47.91935
71.30000,-6.97250,-47.97304
71.40000,-6.98090,-47.99988
71.50000,-6.98920,-48.08042
71.60001,-6.99750,-48.10726
71.70001,-7.00590,-48.16096
71.80000,-7.01420,-48.21465
71.90000,-7.02250,-48.24149
72.00000,-7.03080,-48.29518
72.10001,-7.03920,-48.34887
72.20001,-7.04750,-48.40257
72.30000,-7.05580,-48.45626
72.40000,-7.06420,-48.50995
72.50000,-7.07250,-48.56364
72.60001,-7.08080,-48.61733
72.70001,-7.08920,-48.64418
72.80000,-7.09750,-48.69787
72.90000,-7.10580,-48.75156
73.00000,-7.11420,-48.77840
73.10001,-7.12250,-48.85894
73.20001,-7.13080,-48.88579
73.30000,-7.13920,-48.93948
73.40000,-7.14750,-48.99317
73.50000,-7.15580,-49.02001
73.60001,-7.16420,-49.07370
73.70001,-7.17250,-49.12740
73.80000,-7.18080,-49.18109
73.90000,-7.18920,-49.23478
74.00000,-7.19750,-49.26162
74.10001,-7.20580,-49.31531
74.20001,-7.21420,-49.36901
74.30000,-7.22250,-49.39585
74.40000,-7.23080,-49.44954
74.50000,-7.23920,-49.50323
74.60001,-7.24750,-49.53008
74.70001,-7.25580,-49.61062
74.80000,-7.26420,-49.66431
74.90000,-7.27250,-49.69115
75.00000,-7.28080,-49.74484
75.10001,-7.28920,-49.79854
75.20001,-7.29750,-49.82538
75.30000,-7.30580,-49.87907
75.40000,-7.31420,-49.93276
75.50000,-7.32250,-49.98645
75.60001,-7.33080,-50.01330
75.70001,-7.33920,-50.06699
75.80000,-7.34750,-50.12068
75.90000,-7.35580,-50.17437
76.00000,-7.36420,-50.20122
76.10001,-7.37250,-50.25491
76.20001,-7.38080,-50.28176
76.30000,-7.38920,-50.33545
76.40000,-7.39750,-50.41598
76.50000,-7.40580,-50.44283
76.60001,-7.41420,-50.49652
76.70001,-7.42250,-50.55021
76.80000,-7.43080,-50.57706
76.90000,-7.43920,-50.63075
77.00000,-7.44750,-50.65759
77.10001,-7.45580,-50.71128
77.20001,-7.46420,-50.76498
77.30000,-7.47250,-50.81867
77.40000,-7.48080,-50.84551
77.50000,-7.48920,-50.89920
77.60001,-7.49750,-50.95289
77.70001,-7.50580,-51.00659
77.80000,-7.51420,-51.03343
77.90000,-7.52250,-51.08712
78.00000,-7.53080,-51.14081
78.10001,-7.53920,-51.16766
78.20001,-7.54750,-51.22135
78.30000,-7.55580,-51.27504
78.40000,-7.56410,-51.30189
78.50000,-7.57250,-51.35558
78.60001,-7.58080,-51.38242
78.70001,-7.58910,-51.43611
78.80000,-7.59750,-51.48981
78.90000,-7.60580,-51.51665
79.00000,-7.61410,-51.57034
79.10001,-7.62250,-51.62403
79.20001,-7.63080,-51.65088
79.30000,-7.63910,-51.70457
79.40000,-7.64750,-51.75826
79.50000,-7.65580,-51.78511
79.60001,-7.66410,-51.83880
79.70001,-7.67250,-51.89249
79.80000,-7.68080,-51.91934
79.90000,-7.68910,-51.97303
80.00000,-7.69750,-52.02672
80.10001,-7.70580,-52.05356
80.20001,-7.71410,-52.10725
80.30000,-7.72250,-52.13410
80.40000,-7.73080,-52.18779
80.50001,-7.73910,-52.24148
80.60001,-7.74750,-52.26833
80.70001,-7.75580,-52.32202
80.80000,-7.76410,-52.37571
80.90000,-7.77250,-52.42940
81.00001,-7.78080,-52.45625
81.10001,-7.78910,-52.48309
81.20001,-7.79750,-52.53678
81.30000,-7.80580,-52.59047
81.40000,-7.81410,-52.61732
81.50001,-7.82250,-52.67101
81.60001,-7.83080,-52.72470
81.70001,-7.83910,-52.77839
81.80000,-7.84750,-52.80524
81.90000,-7.85580,-52.83208
82.00001,-7.86410,-52.88578
82.10001,-7.87250,-52.93947
82.20001,-7.88080,-52.96631
82.30000,-7.88910,-53.02000
82.40000,-7.89750,-53.07369
82.50001,-7.90580,-53.10054
82.60001,-7.91410,-53.15423
82.70001,-7.92250,-53.18108
82.80000,-7.93080,-53.23477
82.90000,-7.93910,-53.28846
83.00001,-7.94750,-53.31530
83.10001,-7.95580,-53.36900
83.20001,-7.96410,-53.39584
83.30000,-7.97250,-53.44953
83.40000,-7.98080,-53.50322
83.50001,-7.98910,-53.53007
83.60001,-7.99750,-53.58376
83.70001,-8.00580,-53.61061
83.80000,-8.01410,-53.66430
83.90000,-8.02250,-53.71799
84.00001,-8.03080,-53.74483
84.10001,-8.03910,-53.79852
84.20001,-8.04750,-53.82537
84.30000,-8.05580,-53.87906
84.40000,-8.06410,-53.93275
84.50001,-8.07240,-53.95960
84.60001,-8.08080,-54.01329
84.70001,-8.08910,-54.06698
84.80000,-8.09740,-54.09383
84.90000,-8.10580,-54.12067
85.00001,-8.11410,-54.17436
85.10001,-8.12240,-54.20121
85.20001,-8.13080,-54.25490
85.30000,-8.13910,-54.30859
85.40000,-8.14740,-54.33544
85.50001,-8.15580,-54.38913
85.60001,-8.16410,-54.41597
85.70001,-8.17240,-54.46966
85.80000,-8.18080,-54.52336
85.90000,-8.18910,-54.55020
86.00001,-8.19740,-54.57705
86.10001,-8.20580,-54.63074
86.20001,-8.21410,-54.65758
86.30000,-8.22240,-54.71127
86.40000,-8.23080,-54.76497
86.50001,-8.23910,-54.79181
86.60001,-8.24740,-54.84550
86.70001,-8.25580,-54.87235
86.80000,-8.26410,-54.89919
86.90000,-8.27240,-54.97973
87.00001,-8.28080,-54.97973
87.10001,-8.28910,-55.03342
87.20001,-8.29740,-55.06027
87.30000,-8.30580,-55.11396
87.40000,-8.31410,-55.14080
87.50001,-8.32240,-55.19449
87.60001,-8.33080,-55.24819
87.70001,-8.33910,-55.27503
87.80000,-8.34740,-55.30188
87.90000,-8.35580,-55.35557
88.00001,-8.36410,-55.40926
88.10001,-8.37240,-55.43610
88.20001,-8.38080,-55.46295
88.30000,-8.38910,-55.51664
88.40000,-8.39740,-55.54349
88.50001,-8.40580,-55.59718
88.60001,-8.41410,-55.62402
88.70001,-8.42240,-55.67771
88.80000,-8.43080,-55.73141
88.90000,-8.43910,-55.75825
89.00001,-8.44740,-55.78510
89.10001,-8.45580,-55.83879
89.20001,-8.46410,-55.86563
89.30000,-8.47240,-55.91932
89.40000,-8.48080,-55.94617
89.50001,-8.48910,-55.97302
89.60001,-8.49740,-56.02671
89.70001,-8.50580,-56.05355
89.80000,-8.51410,-56.10724
89.90000,-8.52240,-56.13409
90.00001,-8.53080,-56.18778
90.10001,-8.53910,-56.21463
90.20001,-8.54740,-56.26832
90.30000,-8.55580,-56.29516
90.40000,-8.56410,-56.34885
90.50001,-8.57240,-56.37570
90.60001,-8.58080,-56.40255
90.70001,-8.58910,-56.45624
90.80000,-8.59740,-56.48308
90.90000,-8.60570,-56.53677
91.00001,-8.61410,-56.56362
91.10001,-8.62240,-56.59046
91.20001,-8.63070,-56.64416
91.30000,-8.63910,-56.67100
91.40000,-8.64740,-56.72469
91.50001,-8.65570,-56.77838
91.60001,-8.66410,-56.80523
91.70001,-8.67240,-56.83207
91.80000,-8.68070,-56.88577
91.90000,-8.68910,-56.91261
92.00001,-8.69740,-56.96630
92.10001,-8.70570,-56.99315
92.20001,-8.71410,-57.01999
92.30000,-8.72240,-57.07368
92.40000,-8.73070,-57.10053
92.50001,-8.73910,-57.12738
92.60001,-8.74740,-57.18107
92.70001,-8.75570,-57.20791
92.80000,-8.76410,-57.26160
92.90000,-8.77240,-57.28845
93.00001,-8.78070,-57.31529
93.10001,-8.78910,-57.36899
93.20001,-8.79740,-57.39583
93.30000,-8.80570,-57.42268
93.40000,-8.81410,-57.47637
93.50001,-8.82240,-57.50321
93.60001,-8.83070,-57.55690
93.70001,-8.83910,-57.58375
93.80000,-8.84740,-57.63744
93.90000,-8.85570,-57.66429
94.00001,-8.86410,-57.69113
94.10001,-8.87240,-57.71798
94.20001,-8.88070,-57.77167
94.30000,-8.88910,-57.79851
94.40000,-8.89740,-57.85221
94.50001,-8.90570,-57.87905
94.60001,-8.91410,-57.90590
94.70001,-8.92240,-57.95959
94.80000,-8.93070,-58.01328
94.90000,-8.93910,-58.01328
95.00001,-8.94740,-58.06697
95.10001,-8.95570,-58.09382
95.20001,-8.96410,-58.14751
95.30000,-8.97240,-58.17435
95.40000,-8.98070,-58.20120
95.50001,-8.98910,-58.25489
95.60001,-8.99740,-58.28173
95.70001,-9.00570,-58.30858
95.80000,-9.01410,-58.36227
95.90000,-9.02240,-58.38912
96.00001,-9.03070,-58.41596
96.10001,-9.03910,-58.46965
96.20001,-9.04740,-58.49650
96.30000,-9.05570,-58.52335
96.40000,-9.06410,-58.57704
96.50001,-9.07240,-58.60388
96.60001,-9.08070,-58.63073
96.70001,-9.08910,-58.68442
96.80000,-9.09740,-58.71126
96.90000,-9.10560,-58.73811
97.00001,-9.11390,-58.79180
97.10001,-9.12220,-58.81865
97.20001,-9.13060,-58.87234
97.30000,-9.13890,-58.89918
97.40000,-9.14720,-58.92603
97.50001,-9.15560,-58.95287
97.60001,-9.16390,-58.97972
97.70001,-9.17220,-59.03341
97.80000,-9.18060,-59.06026
97.90000,-9.18890,-59.11395
98.00001,-9.19720,-59.14079
98.10001,-9.20560,-59.16764
98.20001,-9.21390,-59.22133
98.30000,-9.22220,-59.24818
98.40000,-9.23060,-59.27502
98.50001,-9.23890,-59.30187
98.60001,-9.24720,-59.32871
98.70001,-9.25560,-59.38240
98.80000,-9.26390,-59.40925
98.90000,-9.27220,-59.43609
99.00001,-9.28060,-59.48979
99.10001,-9.28890,-59.54348
99.20001,-9.29720,-59.54348
99.30000,-9.30560,-59.57032
99.40000,-9.31390,-59.62401
99.50001,-9.32220,-59.65086
99.60001,-9.33060,-59.70455
99.70001,-9.33890,-59.73140
99.80000,-9.34720,-59.75824
99.90000,-9.35560,-59.78509
100.00001,-9.36390,-59.83878
100.10001,-9.37220,-59.86562
100.20001,-9.38060,-59.89247
100.30000,-9.38890,-59.94616
100.40000,-9.39720,-59.97301
100.50001,-9.40560,-59.99985
100.60001,-9.41390,-60.05354
100.70001,-9.42220,-60.08039
100.80000,-9.43060,-60.10723
100.90000,-9.43890,-60.16092
101.00001,-9.44720,-60.18777
101.10001,-9.45560,-60.21462
101.20001,-9.46390,-60.24146
101.30000,-9.47220,-60.26831
101.40000,-9.48060,-60.32200
101.50001,-9.48890,-60.34884
101.60001,-9.49720,-60.37569
101.70001,-9.50560,-60.42938
101.80000,-9.51390,-60.45623
101.90000,-9.52220,-60.48307
102.00001,-9.53060,-60.53676
102.10001,-9.53890,-60.56361
102.20001,-9.54720,-60.59045
102.30000,-9.55550,-60.61730
102.40000,-9.56390,-60.64415
102.50001,-9.57220,-60.69784
102.60001,-9.58050,-60.72468
102.70001,-9.58890,-60.75153
102.80000,-9.59720,-60.77837
102.90000,-9.60550,-60.83206
103.00001,-9.61390,-60.85891
103.10001,-9.62220,-60.88576
103.20001,-9.63050,-60.91260
103.30000,-9.63890,-60.96629
103.40000,-9.64720,-60.99314
103.50001,-9.65550,-61.01998
103.60001,-9.66390,-61.07367
103.70001,-9.67220,-61.10052
103.80000,-9.68050,-61.12737
103.90000,-9.68890,-61.15421
104.00001,-9.69720,-61.18106
104.10001,-9.70550,-61.20790
104.20001,-9.71390,-61.26159
104.30000,-9.72220,-61.26159
104.40000,-9.73050,-61.31528
104.50001,-9.73890,-61.34213
104.60001,-9.74720,-61.36898
104.70001,-9.75550,-61.42267
104.80000,-9.76390,-61.44951
104.90000,-9.77220,-61.44951
105.00001,-9.78050,-61.53005
105.10001,-9.78890,-61.55689
105.20001,-9.79720,-61.55689
105.30000,-9.80550,-61.61059
105.40000,-9.81390,-61.61059
105.50001,-9.82220,-61.66428
105.60001,-9.83050,-61.71797
105.70001,-9.83890,-61.71797
105.80000,-9.84720,-61.77166
105.90000,-9.85550,-61.79850
106.00001,-9.86390,-61.79850
106.10001,-9.87220,-61.85220
106.20001,-9.88050,-61.87904
106.30000,-9.88890,-61.90589
106.40000,-9.89720,-61.95958
106.50001,-9.90550,-61.95958
106.60001,-9.91390,-62.01327
106.70001,-9.92220,-62.04011
106.80000,-9.93050,-62.04011
106.90000,-9.93890,-62.09381
107.00001,-9.94720,-62.12065
107.10001,-9.95550,-62.14750
107.20001,-9.96390,-62.17434
107.30000,-9.97220,-62.20119
107.40000,-9.98050,-62.22803
107.50001,-9.98890,-62.28172
107.60001,-9.99720,-62.28172
107.70001,-10.00550,-62.33542
107.80000,-10.01390,-62.36226
